Date,  Clinton Gormley , David Pilato , Simon Willnauer , Martijn van Groningen , uboness , Boaz Leskes , Adrien Grand , javanna , Robert Muir , Ryan Ernst , Other , Total 
2014-03-01T00:00Z, 11, 80, 61, 31, 7, 20, 26, 24, 1, 0, 134, 395
2014-04-01T00:00Z, 12, 30, 79, 27, 1, 19, 29, 17, 3, 0, 115, 332
2014-05-01T00:00Z, 25, 28, 43, 29, 1, 14, 31, 18, 1, 0, 128, 318
2014-06-01T00:00Z, 25, 25, 24, 16, 0, 16, 13, 13, 3, 0, 97, 232
2014-07-01T00:00Z, 31, 32, 84, 31, 8, 31, 26, 12, 4, 5, 209, 473
2014-08-01T00:00Z, 12, 43, 29, 51, 29, 47, 23, 47, 13, 9, 203, 506
2014-09-01T00:00Z, 20, 39, 55, 14, 17, 42, 7, 46, 3, 8, 157, 408
2014-10-01T00:00Z, 25, 40, 31, 28, 25, 19, 13, 15, 1, 18, 310, 525
2014-11-01T00:00Z, 14, 16, 65, 127, 7, 16, 22, 26, 18, 12, 305, 628
2014-12-01T00:00Z, 3, 23, 49, 23, 14, 15, 28, 21, 5, 5, 147, 333
2015-01-01T00:00Z, 7, 24, 24, 25, 38, 10, 14, 13, 6, 26, 146, 333
2015-02-01T00:00Z, 20, 54, 51, 31, 30, 30, 11, 12, 18, 31, 133, 421
2015-03-01T00:00Z, 12, 48, 34, 40, 23, 26, 10, 27, 8, 6, 147, 381
2015-04-01T00:00Z, 19, 38, 63, 65, 27, 21, 68, 18, 87, 49, 257, 712
2015-05-01T00:00Z, 28, 13, 102, 53, 38, 7, 64, 34, 209, 32, 327, 907
2015-06-01T00:00Z, 42, 16, 141, 32, 37, 28, 34, 24, 52, 48, 262, 716
2015-07-01T00:00Z, 33, 24, 30, 53, 19, 27, 30, 15, 163, 38, 395, 827
2015-08-01T00:00Z, 60, 61, 91, 60, 7, 29, 53, 57, 99, 114, 396, 1027
2015-09-01T00:00Z, 18, 41, 93, 52, 27, 19, 24, 43, 108, 53, 592, 1070
2015-10-01T00:00Z, 28, 26, 146, 19, 8, 6, 31, 50, 34, 24, 456, 828
