Date,  Konstantin Shcheglov , Brian Wilkerson , Johnni Winther , Paul Berry , Sam Rawlins , Jens Johansen , Ben Konyi , Alexander Markov , Tess Strickland , jlcontreras , Other , Total 
2020-08-01T00:00Z, 33696, 9590, 140973, 5493, 15177, 14785, 2965, 3612, 6551, 3800, 39709, 276351
2020-09-01T00:00Z, 16762, 8955, 28257, 6378, 15309, 54619, 3206, 2612, 5996, 4643, 45939, 192676
