Date,  Google , Adam Singer , Kenneth Endfinger , Cristian Almstrand , Alexandre Ardhuin , BOT , Roel Spilker , ARM , Gabriel Terwesten , Total 
2020-08-01T00:00Z, 276351, 0, 0, 0, 0, 0, 0, 0, 0, 276351
2020-09-01T00:00Z, 192676, 0, 0, 0, 0, 0, 0, 0, 0, 192676
