Date,  Elastic , Martijn van Groningen , Luca Cavanna , David Roberts , James Baiera , Bogdan Pintea , bellengao , Christos Soulios , Howard , Joe Gallo , Other , Total 
2019-05-01T00:00Z, 434, 18, 11, 8, 4, 0, 1, 0, 0, 0, 29, 505
2019-06-01T00:00Z, 417, 17, 7, 20, 6, 0, 0, 1, 0, 0, 34, 502
2019-07-01T00:00Z, 535, 13, 3, 16, 4, 0, 0, 1, 0, 0, 38, 610
2019-08-01T00:00Z, 474, 28, 5, 6, 1, 1, 0, 2, 0, 0, 34, 551
2019-09-01T00:00Z, 436, 27, 3, 12, 3, 0, 0, 1, 0, 0, 28, 510
2019-10-01T00:00Z, 499, 33, 3, 12, 5, 0, 0, 0, 1, 0, 37, 590
2019-11-01T00:00Z, 333, 6, 0, 6, 1, 1, 4, 2, 0, 0, 27, 380
2019-12-01T00:00Z, 275, 9, 0, 3, 0, 0, 0, 0, 0, 0, 23, 310
2020-01-01T00:00Z, 496, 18, 0, 10, 0, 4, 1, 0, 1, 0, 40, 570
2020-02-01T00:00Z, 435, 9, 3, 13, 0, 4, 5, 0, 0, 0, 33, 502
2020-03-01T00:00Z, 608, 11, 14, 5, 4, 2, 3, 3, 0, 0, 43, 693
2020-04-01T00:00Z, 574, 5, 4, 21, 3, 2, 3, 6, 0, 0, 40, 658
2020-05-01T00:00Z, 458, 17, 4, 6, 2, 10, 3, 1, 1, 0, 30, 532
2020-06-01T00:00Z, 487, 9, 5, 12, 2, 1, 4, 0, 3, 0, 21, 544
2020-07-01T00:00Z, 622, 14, 36, 9, 3, 6, 1, 1, 6, 0, 28, 726
2020-08-01T00:00Z, 415, 6, 7, 2, 0, 1, 3, 0, 1, 0, 12, 447
2020-09-01T00:00Z, 480, 17, 27, 9, 0, 1, 4, 2, 4, 0, 18, 562
2020-10-01T00:00Z, 429, 5, 31, 9, 1, 3, 1, 0, 4, 5, 28, 516
2020-11-01T00:00Z, 397, 4, 12, 7, 0, 2, 9, 7, 5, 3, 24, 470
2020-12-01T00:00Z, 396, 10, 8, 7, 3, 4, 4, 4, 4, 0, 31, 471
2021-01-01T00:00Z, 437, 10, 6, 6, 1, 0, 5, 0, 5, 1, 26, 497
2021-02-01T00:00Z, 475, 10, 9, 9, 0, 3, 5, 0, 1, 14, 16, 542
2021-03-01T00:00Z, 505, 27, 12, 6, 0, 3, 0, 2, 1, 8, 22, 586
2021-04-01T00:00Z, 539, 6, 12, 6, 0, 3, 3, 1, 0, 7, 19, 596
2021-05-01T00:00Z, 306, 13, 8, 9, 0, 1, 0, 0, 0, 4, 14, 355
2021-06-01T00:00Z, 164, 3, 5, 6, 1, 1, 1, 1, 0, 3, 9, 194
