Date,  Google , vsmenon , Günter Zöchbauer , guillermooo , Stan Manilov , Alexandre Ardhuin , Nathan Kerr , Greg Littlefield , Danny Tuppeny , Sergey G. Grekhov , Other , Total 
2015-06-01T00:00Z, 651, 1, 2, 0, 0, 0, 0, 0, 0, 0, 0, 654
2015-07-01T00:00Z, 491, 3, 0, 4, 0, 0, 0, 0, 0, 0, 1, 499
2015-08-01T00:00Z, 666, 3, 0, 6, 3, 1, 0, 0, 0, 0, 1, 680
2015-09-01T00:00Z, 544, 5, 0, 0, 0, 0, 0, 0, 0, 0, 0, 549
2015-10-01T00:00Z, 719, 1, 0, 0, 0, 0, 0, 0, 0, 0, 0, 720
2015-11-01T00:00Z, 438, 4, 0, 0, 0, 1, 1, 0, 0, 0, 1, 445
2015-12-01T00:00Z, 524, 5, 0, 0, 0, 0, 0, 0, 0, 0, 0, 529
2016-01-01T00:00Z, 627, 15, 0, 1, 0, 0, 0, 0, 0, 0, 0, 643
2016-02-01T00:00Z, 650, 20, 0, 0, 0, 0, 0, 0, 0, 0, 1, 671
2016-03-01T00:00Z, 674, 10, 0, 0, 0, 1, 0, 1, 0, 0, 0, 686
2016-04-01T00:00Z, 619, 5, 0, 0, 0, 0, 0, 0, 0, 0, 3, 627
2016-05-01T00:00Z, 669, 1, 0, 0, 0, 3, 2, 1, 0, 0, 1, 677
2016-06-01T00:00Z, 496, 0, 0, 0, 2, 0, 0, 0, 0, 0, 0, 498
2016-07-01T00:00Z, 478, 0, 0, 0, 2, 0, 0, 0, 1, 0, 0, 481
2016-08-01T00:00Z, 694, 3, 0, 0, 7, 0, 0, 0, 2, 0, 4, 710
2016-09-01T00:00Z, 574, 0, 0, 0, 2, 0, 0, 0, 0, 0, 1, 577
2016-10-01T00:00Z, 466, 1, 0, 0, 0, 0, 0, 0, 0, 0, 2, 469
2016-11-01T00:00Z, 652, 0, 0, 0, 0, 1, 0, 0, 0, 2, 3, 658
2016-12-01T00:00Z, 452, 0, 0, 0, 0, 0, 0, 0, 0, 0, 3, 455
2017-01-01T00:00Z, 806, 0, 0, 0, 0, 0, 0, 0, 0, 3, 8, 817
2017-02-01T00:00Z, 837, 1, 0, 0, 0, 0, 0, 0, 0, 1, 2, 841
2017-03-01T00:00Z, 851, 0, 0, 0, 0, 0, 0, 0, 0, 0, 1, 852
2017-04-01T00:00Z, 651, 0, 0, 0, 0, 0, 0, 0, 0, 0, 1, 652
2017-05-01T00:00Z, 805, 1, 0, 0, 0, 1, 0, 0, 0, 0, 1, 808
2017-06-01T00:00Z, 824, 0, 0, 0, 0, 1, 0, 0, 0, 2, 0, 827
2017-07-01T00:00Z, 757, 0, 0, 0, 0, 0, 0, 0, 0, 0, 0, 757
2017-08-01T00:00Z, 797, 0, 0, 0, 0, 0, 0, 0, 3, 0, 1, 801
2017-09-01T00:00Z, 870, 0, 0, 0, 0, 0, 0, 0, 0, 0, 2, 872
