Date,  Simon Willnauer , Martijn van Groningen , Adrien Grand , Nik Everett , javanna , Robert Muir , Ryan Ernst , jaymode , Jack Conradson , Jason Tedor , Other , Total 
2015-11-01T00:00Z, 4642, 6961, 2197, 2483, 11440, 14517, 18543, 402, 0, 3277, 51932, 116394
2015-12-01T00:00Z, 12318, 5861, 13426, 4, 3248, 14110, 25414, 24400, 20305, 2712, 55227, 177025
2016-01-01T00:00Z, 17547, 11459, 6684, 14124, 6875, 169, 3361, 3688, 7960, 10907, 55872, 138646
2016-02-01T00:00Z, 8869, 3230, 3557, 9477, 4391, 137, 6778, 1086, 1277, 3461, 100610, 142873
2016-03-01T00:00Z, 9074, 14405, 7889, 9155, 5823, 2557, 10457, 5825, 12816, 4389, 65656, 148046
2016-04-01T00:00Z, 0, 11803, 17685, 32913, 16, 182, 4646, 18506, 0, 2954, 49469, 138174
2016-05-01T00:00Z, 6214, 4040, 10028, 4394, 41, 20352, 7859, 1174, 32733, 6006, 67090, 159931
2016-06-01T00:00Z, 15000, 3771, 8646, 29254, 19373, 28482, 5201, 9117, 7935, 4442, 62666, 193887
2016-07-01T00:00Z, 8478, 11185, 2158, 21004, 9375, 391, 24000, 6413, 9010, 17024, 49678, 158716
2016-08-01T00:00Z, 1218, 2304, 7217, 9888, 4370, 16, 5625, 5547, 435, 14447, 45680, 96747
2016-09-01T00:00Z, 7440, 3212, 236, 4472, 6994, 0, 1058, 9716, 34, 9621, 50313, 93096
2016-10-01T00:00Z, 14450, 84, 1531, 5869, 5531, 0, 2157, 283, 995, 5518, 41724, 78142
