Date,  Elastic , David Pilato , Martijn van Groningen , Luca Cavanna , Jun Ohtani , Robert Muir , Konrad Beiske , Uwe Schindler , Amazon , Nicholas Knize , Other , Total 
2015-11-01T00:00Z, 87500, 1104, 6961, 0, 0, 14517, 0, 0, 218, 4493, 1601, 116394
2015-12-01T00:00Z, 152813, 1563, 5861, 0, 1117, 14110, 0, 0, 1071, 138, 352, 177025
2016-01-01T00:00Z, 124848, 48, 11459, 0, 0, 169, 1183, 0, 631, 47, 261, 138646
2016-02-01T00:00Z, 127574, 8164, 3230, 0, 0, 137, 1816, 0, 46, 466, 1440, 142873
2016-03-01T00:00Z, 125768, 2189, 14405, 0, 356, 2557, 0, 0, 0, 110, 2661, 148046
2016-04-01T00:00Z, 122341, 1023, 11803, 1314, 253, 182, 0, 0, 227, 8, 1023, 138174
2016-05-01T00:00Z, 130573, 593, 4040, 445, 0, 20352, 0, 3183, 141, 0, 604, 159931
2016-06-01T00:00Z, 154749, 1317, 3771, 0, 472, 28482, 0, 451, 185, 3951, 509, 193887
2016-07-01T00:00Z, 140894, 1991, 11185, 1193, 712, 391, 0, 0, 271, 76, 2003, 158716
2016-08-01T00:00Z, 90536, 182, 2304, 742, 867, 16, 0, 0, 545, 701, 854, 96747
2016-09-01T00:00Z, 75671, 10801, 3212, 176, 342, 0, 0, 0, 0, 2169, 725, 93096
2016-10-01T00:00Z, 76294, 100, 84, 60, 406, 0, 0, 0, 8, 0, 1190, 78142
