Date,  Total 
2017-12-01T00:00Z, 249
2018-01-01T00:00Z, 249
2018-02-01T00:00Z, 191
2018-03-01T00:00Z, 206
2018-04-01T00:00Z, 185
2018-05-01T00:00Z, 340
2018-06-01T00:00Z, 255
2018-07-01T00:00Z, 475
2018-08-01T00:00Z, 441
2018-09-01T00:00Z, 292
2018-10-01T00:00Z, 400
2018-11-01T00:00Z, 452
2018-12-01T00:00Z, 505
2019-01-01T00:00Z, 644
2019-02-01T00:00Z, 663
2019-03-01T00:00Z, 626
2019-04-01T00:00Z, 508
