Date,  Boaz Leskes , Rashid Khan , Spencer Alger , Juan Thomassie , Joe Fleming , Khalah Jones-Golden , Jonathan Budzenski , spalger , LeeDr , CJ Cenizal , Other , Total 
2015-03-01T00:00Z, 683, 110, 825, 163616, 426, 946, 0, 0, 0, 0, 2751, 169357
2015-04-01T00:00Z, 0, 1560, 10736, 2449, 3774, 566, 0, 0, 0, 0, 6905, 25990
2015-05-01T00:00Z, 0, 760, 12172, 1131, 1997, 146809, 0, 0, 0, 0, 7054, 169923
2015-06-01T00:00Z, 236176, 4789048, 14938, 0, 5524, 286, 39, 0, 0, 0, 5729, 5051740
2015-07-01T00:00Z, 0, 18915, 9099, 0, 128, 288, 251, 103076, 0, 0, 6190, 137947
2015-08-01T00:00Z, 2, 4518204, 0, 0, 2981, 5, 204, 16793, 0, 0, 3844, 4542033
2015-09-01T00:00Z, 24986, 1917610, 0, 0, 500, 0, 794, 35915, 0, 0, 3590, 1983395
2015-10-01T00:00Z, 24295, 300514, 0, 0, 825, 245, 33189, 22056, 0, 0, 1845, 382969
2015-11-01T00:00Z, 20, 1020188, 0, 0, 16092, 0, 152, 2166, 36104, 0, 28563, 1103285
2015-12-01T00:00Z, 0, 1830, 0, 0, 643, 37, 1062, 1803, 571, 0, 8392, 14338
2016-01-01T00:00Z, 0, 581, 0, 0, 359, 546, 16817, 1899, 2138, 0, 5067, 27407
2016-02-01T00:00Z, 0, 2078, 0, 0, 42, 404, 899, 68838, 1, 0, 8083, 80345
2016-03-01T00:00Z, 0, 1354, 0, 0, 244, 1761, 505, 4279, 201, 0, 14081, 22425
2016-04-01T00:00Z, 0, 1359, 0, 0, 145, 803, 52, 3023, 94, 0, 26090, 31566
2016-05-01T00:00Z, 0, 4572, 0, 0, 0, 24, 539, 0, 1314, 0, 3871, 10320
2016-06-01T00:00Z, 0, 103, 0, 0, 424, 0, 208, 5470, 1084, 9890, 4903, 22082
2016-07-01T00:00Z, 0, 1238, 0, 0, 210, 0, 475, 86, 129, 24070, 4660, 30868
2016-08-01T00:00Z, 0, 7459, 0, 0, 0, 0, 5, 431, 576, 934, 11042, 20447
2016-09-01T00:00Z, 0, 48, 0, 0, 0, 0, 59, 2650, 203, 3490, 19793, 26243
2016-10-01T00:00Z, 0, 14, 0, 0, 0, 0, 30, 1465, 0, 2242, 7909, 11660
