Date,  Elastic , Sibi , Kevin Kirsche , Jimmy Jones , Andrey , Trevan Richins , Gaurav Singhania , Alvaro del Castillo , Nicolas Bevacqua , Nicolás Bevacqua , Other , Total 
2015-03-01T00:00Z, 167916, 426, 306, 67, 455, 42, 0, 0, 0, 0, 145, 169357
2015-04-01T00:00Z, 21726, 3774, 0, 13, 375, 0, 0, 0, 0, 0, 102, 25990
2015-05-01T00:00Z, 167669, 1997, 0, 0, 0, 0, 0, 0, 0, 0, 257, 169923
2015-06-01T00:00Z, 5046171, 5524, 9, 0, 0, 0, 0, 0, 0, 0, 36, 5051740
2015-07-01T00:00Z, 137469, 128, 0, 6, 0, 0, 328, 0, 0, 0, 16, 137947
2015-08-01T00:00Z, 4538978, 2981, 10, 19, 0, 0, 0, 0, 0, 0, 45, 4542033
2015-09-01T00:00Z, 1982802, 500, 0, 0, 0, 0, 0, 0, 0, 0, 93, 1983395
2015-10-01T00:00Z, 381988, 825, 28, 0, 0, 0, 0, 86, 0, 0, 42, 382969
2015-11-01T00:00Z, 1087121, 16092, 0, 0, 0, 0, 0, 54, 0, 0, 18, 1103285
2015-12-01T00:00Z, 13259, 643, 0, 0, 0, 0, 0, 81, 0, 0, 355, 14338
2016-01-01T00:00Z, 26935, 359, 0, 0, 0, 0, 0, 13, 0, 0, 100, 27407
2016-02-01T00:00Z, 79158, 42, 2, 71, 0, 845, 0, 35, 0, 0, 192, 80345
2016-03-01T00:00Z, 21270, 244, 0, 0, 0, 0, 0, 0, 833, 21, 57, 22425
2016-04-01T00:00Z, 29114, 145, 0, 4, 0, 0, 0, 0, 2297, 0, 6, 31566
2016-05-01T00:00Z, 8629, 0, 0, 5, 0, 0, 0, 0, 34, 1565, 87, 10320
2016-06-01T00:00Z, 21108, 424, 0, 0, 0, 0, 0, 0, 0, 408, 142, 22082
2016-07-01T00:00Z, 29572, 210, 0, 0, 0, 0, 0, 0, 0, 1070, 16, 30868
2016-08-01T00:00Z, 20272, 0, 0, 0, 0, 0, 0, 0, 0, 0, 175, 20447
2016-09-01T00:00Z, 26224, 0, 0, 0, 0, 0, 0, 0, 0, 0, 19, 26243
2016-10-01T00:00Z, 11350, 0, 0, 0, 0, 0, 0, 2, 0, 0, 308, 11660
