User,   Commits, Insertions,  Deletions, LineVolume, Authorships,  Reviews
Alvaro del Castillo, 15,158, -111,269,15, 0
Andrey, 9,465, -365,830,9, 0
David Vega Fontelos, 12,99, -62,161,12, 0
Elastic, 6953,6761243, -7056213,13817456,6953, 0
Jimmy Jones, 27,128, -65,193,27, 0
Jordan Sissel, 10,107, -34,141,10, 0
Kevin Kirsche, 11,211, -148,359,11, 0
Nicolas Bevacqua, 63,1920, -1244,3164,63, 0
Nicolás Bevacqua, 98,1958, -1106,3064,98, 0
Sibi, 670,11409, -22976,34385,670, 0
OTHER USERS, 168,2132, -870,3002,168, 0
