Date,  Total 
2015-03-01T00:00Z, 25
2015-04-01T00:00Z, 121
2015-05-01T00:00Z, 118
2015-06-01T00:00Z, 29940
2015-07-01T00:00Z, -5
2015-08-01T00:00Z, -28698
2015-09-01T00:00Z, 838
2015-10-01T00:00Z, 4326
2015-11-01T00:00Z, -6405
2015-12-01T00:00Z, 71
2016-01-01T00:00Z, 73
2016-02-01T00:00Z, 101
2016-03-01T00:00Z, 37
2016-04-01T00:00Z, 168
2016-05-01T00:00Z, 83
2016-06-01T00:00Z, 77
2016-07-01T00:00Z, 148
2016-08-01T00:00Z, -11
2016-09-01T00:00Z, -10
2016-10-01T00:00Z, 5
