Date,  Google , Danny Tuppeny , Sergey G. Grekhov , mnordine , Lorenz Nickel , Abhishek kanojia , Cameron Steffen , djpnewton , Tom Gilder , Priya Pandya , Other , Total 
2019-07-01T00:00Z, 678, 3, 0, 0, 1, 1, 1, 1, 1, 0, 0, 686
2019-08-01T00:00Z, 850, 4, 1, 0, 0, 0, 0, 0, 0, 1, 2, 858
2019-09-01T00:00Z, 865, 4, 0, 0, 0, 0, 0, 0, 0, 0, 2, 871
