Date,  Google , Adam Singer , Kenneth Endfinger , Cristian Almstrand , Alexandre Ardhuin , BOT , Roel Spilker , ARM , Gabriel Terwesten , Total 
2019-07-01T00:00Z, 394042, 0, 0, 0, 0, 0, 0, 0, 0, 394042
2019-08-01T00:00Z, 335866, 0, 0, 0, 0, 0, 0, 0, 0, 335866
2019-09-01T00:00Z, 417610, 0, 0, 0, 0, 0, 0, 0, 0, 417610
