Date,  Adam Barth , Hixie , Hans Muller , Viktor Lidholt , Ian Hickson , Devon Carew , Jason Simmons , Todd Volkert , Chris Bracken , Michael Goderbauer , Other , Total 
2014-10-01T00:00Z, 1, 6, 0, 0, 0, 0, 0, 0, 0, 0, 2, 9
2014-11-01T00:00Z, 4, 17, 0, 0, 0, 0, 0, 0, 0, 0, 11, 32
2014-12-01T00:00Z, 0, 0, 0, 0, 0, 0, 0, 0, 0, 0, 5, 5
2015-01-01T00:00Z, 14, 4, 0, 0, 0, 0, 0, 0, 0, 0, 18, 36
2015-02-01T00:00Z, 21, 0, 3, 0, 0, 0, 0, 0, 0, 0, 9, 33
2015-03-01T00:00Z, 59, 2, 0, 0, 0, 0, 0, 0, 0, 0, 35, 96
2015-04-01T00:00Z, 0, 5, 0, 0, 0, 0, 0, 0, 0, 0, 16, 21
2015-05-01T00:00Z, 16, 20, 0, 0, 0, 0, 0, 0, 0, 0, 21, 57
2015-06-01T00:00Z, 32, 47, 10, 14, 0, 0, 0, 0, 0, 0, 91, 194
2015-07-01T00:00Z, 94, 24, 16, 39, 7, 0, 0, 0, 0, 0, 102, 282
2015-08-01T00:00Z, 221, 37, 29, 88, 24, 15, 0, 0, 0, 0, 168, 582
2015-09-01T00:00Z, 185, 59, 33, 36, 26, 9, 10, 0, 0, 0, 112, 470
2015-10-01T00:00Z, 207, 71, 26, 79, 31, 24, 24, 2, 0, 0, 108, 572
2015-11-01T00:00Z, 244, 51, 44, 3, 53, 27, 16, 0, 0, 0, 87, 525
2015-12-01T00:00Z, 105, 36, 29, 2, 89, 20, 26, 4, 0, 0, 79, 390
2016-01-01T00:00Z, 157, 7, 22, 2, 82, 60, 6, 0, 0, 0, 73, 409
2016-02-01T00:00Z, 164, 45, 59, 9, 70, 97, 12, 10, 0, 0, 147, 613
2016-03-01T00:00Z, 206, 43, 52, 14, 117, 107, 26, 0, 0, 0, 140, 705
2016-04-01T00:00Z, 85, 0, 20, 11, 57, 52, 10, 0, 0, 0, 72, 307
2016-05-01T00:00Z, 67, 0, 26, 4, 30, 41, 16, 10, 0, 0, 108, 302
2016-06-01T00:00Z, 85, 0, 28, 0, 27, 21, 11, 16, 0, 0, 66, 254
2016-07-01T00:00Z, 40, 0, 19, 0, 9, 9, 9, 0, 0, 0, 55, 141
2016-08-01T00:00Z, 19, 0, 27, 0, 23, 16, 19, 8, 8, 0, 88, 208
2016-09-01T00:00Z, 42, 0, 13, 0, 31, 10, 4, 0, 10, 0, 96, 206
2016-10-01T00:00Z, 70, 0, 11, 0, 24, 9, 17, 4, 15, 0, 70, 220
2016-11-01T00:00Z, 19, 0, 21, 0, 60, 9, 7, 8, 11, 0, 86, 221
2016-12-01T00:00Z, 0, 0, 8, 0, 7, 5, 10, 6, 0, 0, 36, 72
2017-01-01T00:00Z, 69, 0, 11, 0, 67, 7, 9, 18, 7, 19, 37, 244
2017-02-01T00:00Z, 95, 0, 10, 0, 36, 9, 10, 17, 49, 47, 69, 342
2017-03-01T00:00Z, 43, 0, 17, 1, 13, 3, 12, 16, 50, 45, 129, 329
2017-04-01T00:00Z, 33, 0, 17, 0, 44, 11, 16, 10, 9, 9, 106, 255
2017-05-01T00:00Z, 17, 0, 21, 0, 67, 5, 16, 19, 49, 10, 104, 308
2017-06-01T00:00Z, 0, 0, 16, 0, 38, 6, 13, 19, 40, 22, 83, 237
2017-07-01T00:00Z, 0, 0, 2, 0, 17, 12, 12, 16, 5, 21, 48, 133
2017-08-01T00:00Z, 9, 0, 5, 0, 17, 8, 12, 0, 14, 21, 66, 152
2017-09-01T00:00Z, 17, 0, 11, 0, 45, 0, 1, 7, 19, 13, 83, 196
2017-10-01T00:00Z, 8, 0, 5, 0, 17, 4, 9, 1, 11, 18, 101, 174
2017-11-01T00:00Z, 2, 0, 6, 0, 23, 7, 1, 10, 22, 7, 121, 199
2017-12-01T00:00Z, 0, 0, 4, 0, 20, 2, 3, 1, 35, 11, 135, 211
2018-01-01T00:00Z, 0, 0, 9, 0, 45, 2, 8, 2, 15, 24, 139, 244
2018-02-01T00:00Z, 0, 0, 8, 0, 8, 4, 10, 18, 18, 5, 160, 231
2018-03-01T00:00Z, 0, 0, 26, 0, 16, 0, 16, 15, 15, 8, 167, 263
2018-04-01T00:00Z, 1, 0, 21, 0, 8, 10, 4, 29, 29, 7, 134, 243
2018-05-01T00:00Z, 0, 0, 24, 0, 7, 8, 3, 30, 45, 12, 175, 304
2018-06-01T00:00Z, 1, 0, 6, 0, 22, 1, 3, 0, 12, 12, 153, 210
2018-07-01T00:00Z, 0, 0, 9, 0, 12, 2, 2, 5, 7, 7, 188, 232
2018-08-01T00:00Z, 0, 0, 7, 0, 31, 5, 0, 3, 7, 13, 235, 301
2018-09-01T00:00Z, 0, 0, 9, 0, 4, 3, 4, 2, 15, 9, 204, 250
2018-10-01T00:00Z, 0, 0, 18, 0, 11, 5, 10, 0, 2, 10, 269, 325
2018-11-01T00:00Z, 0, 0, 12, 0, 10, 1, 3, 12, 0, 7, 226, 271
