Date,  Total 
2014-10-01T00:00Z, 5841
2014-11-01T00:00Z, 7501
2014-12-01T00:00Z, 7609
2015-01-01T00:00Z, 7830
2015-02-01T00:00Z, 11372
2015-03-01T00:00Z, 31567
2015-04-01T00:00Z, 30811
2015-05-01T00:00Z, 61850
2015-06-01T00:00Z, 67194
2015-07-01T00:00Z, 58343
2015-08-01T00:00Z, 71910
2015-09-01T00:00Z, 89293
2015-10-01T00:00Z, 91071
2015-11-01T00:00Z, 97572
2015-12-01T00:00Z, 73104
2016-01-01T00:00Z, 83040
2016-02-01T00:00Z, 94239
2016-03-01T00:00Z, 111142
2016-04-01T00:00Z, 125910
2016-05-01T00:00Z, 133918
2016-06-01T00:00Z, 145308
2016-07-01T00:00Z, 151799
2016-08-01T00:00Z, 162941
2016-09-01T00:00Z, 171841
2016-10-01T00:00Z, 172801
2016-11-01T00:00Z, 176759
2016-12-01T00:00Z, 180347
2017-01-01T00:00Z, 197142
2017-02-01T00:00Z, 202877
2017-03-01T00:00Z, 225302
2017-04-01T00:00Z, 235276
2017-05-01T00:00Z, 245218
2017-06-01T00:00Z, 258435
2017-07-01T00:00Z, 268434
2017-08-01T00:00Z, 285056
2017-09-01T00:00Z, 306572
2017-10-01T00:00Z, 323404
2017-11-01T00:00Z, 335558
2017-12-01T00:00Z, 352020
2018-01-01T00:00Z, 401950
2018-02-01T00:00Z, 410436
2018-03-01T00:00Z, 426132
2018-04-01T00:00Z, 437775
2018-05-01T00:00Z, 448852
2018-06-01T00:00Z, 460228
2018-07-01T00:00Z, 479038
2018-08-01T00:00Z, 514640
2018-09-01T00:00Z, 526851
2018-10-01T00:00Z, 544602
2018-11-01T00:00Z, 554205
