Date,  Total 
2014-10-01T00:00Z, 7
2014-11-01T00:00Z, 33
2014-12-01T00:00Z, 2
2015-01-01T00:00Z, 6
2015-02-01T00:00Z, 12
2015-03-01T00:00Z, -8
2015-04-01T00:00Z, 3
2015-05-01T00:00Z, 49
2015-06-01T00:00Z, -88
2015-07-01T00:00Z, 261
2015-08-01T00:00Z, 159
2015-09-01T00:00Z, 105
2015-10-01T00:00Z, -5
2015-11-01T00:00Z, -14
2015-12-01T00:00Z, 39
2016-01-01T00:00Z, 58
2016-02-01T00:00Z, 110
2016-03-01T00:00Z, 62
2016-04-01T00:00Z, 112
2016-05-01T00:00Z, 79
2016-06-01T00:00Z, 40
2016-07-01T00:00Z, 58
2016-08-01T00:00Z, 22
2016-09-01T00:00Z, 53
2016-10-01T00:00Z, 18
2016-11-01T00:00Z, 5
2016-12-01T00:00Z, 37
2017-01-01T00:00Z, 108
2017-02-01T00:00Z, 69
2017-03-01T00:00Z, 174
2017-04-01T00:00Z, 96
2017-05-01T00:00Z, 267
2017-06-01T00:00Z, 62
2017-07-01T00:00Z, 28
2017-08-01T00:00Z, 147
2017-09-01T00:00Z, 74
2017-10-01T00:00Z, 43
2017-11-01T00:00Z, 15
2017-12-01T00:00Z, 78
2018-01-01T00:00Z, 64
2018-02-01T00:00Z, -9
2018-03-01T00:00Z, 30
2018-04-01T00:00Z, 31
2018-05-01T00:00Z, 54
2018-06-01T00:00Z, 51
2018-07-01T00:00Z, 46
2018-08-01T00:00Z, 114
2018-09-01T00:00Z, 58
2018-10-01T00:00Z, 83
2018-11-01T00:00Z, 20
