Date,  Michael Goderbauer , Gary Qian , Greg Spencer , Jonah Williams , Kate Lovett , Darren Austin , chunhtai , Pierre-Louis , Taha Tesser , Qun Cheng , Other , Total 
2022-06-01T00:00Z, 0, 1449, 0, 8810, 1008, 1716, 0, 347, 1551, 1470, 19679, 36030
2022-07-01T00:00Z, 2545, 8283, 4349, 3577, 3076, 1974, 0, 459, 2206, 1015, 26539, 54023
2022-08-01T00:00Z, 439, 330, 5123, 6523, 2898, 3174, 1070, 1043, 1340, 2459, 39247, 63646
2022-09-01T00:00Z, 101, 40, 12298, 374, 1132, 1400, 1929, 1582, 1888, 5208, 31721, 57673
