User,   Commits, Insertions,  Deletions, LineVolume, Authorships,  Reviews
Danny Tuppeny, 48,29852, -12907,42759,48, 0
Gihwan Oh, 1,1, -1,2,1, 0
Google, 1431,508853, -339926,848779,1431, 0
Matthew Lloyd, 1,1, -1,2,1, 0
Parker Lougheed, 4,331, -9,340,4, 0
Robert Nystrom, 2,8, -2,10,2, 0
eggfly, 2,7, -1,8,2, 0
gaaclarke, 1,1, -1,2,1, 0
sgrekhov, 4,41, -159,200,4, 0
suragch, 2,3, -3,6,2, 0
OTHER USERS, 11,737, -84,821,11, 0
