Date,  Andreas Kling , Sergey Bugaev , Tom , Andrew Kaster , Liav A , Brian Gianforcaro , Linus Groh , Ben Wiederhake , Itamar , Ali Mohammad Pur , Nico Weber , thankyouverycool , Idan Horowitz , Jelle Raaijmakers , Timothy Flynn , Gunnar Beutner , Daniel Bertalan , Tim Schumacher , Sam Atkins , Other , Total 
2018-10-01T00:00Z, 274, 0, 0, 0, 0, 0, 0, 0, 0, 0, 0, 0, 0, 0, 0, 0, 0, 0, 0, 0, 274
2018-11-01T00:00Z, 164, 0, 0, 0, 0, 0, 0, 0, 0, 0, 0, 0, 0, 0, 0, 0, 0, 0, 0, 0, 164
2018-12-01T00:00Z, 73, 0, 0, 0, 0, 0, 0, 0, 0, 0, 0, 0, 0, 0, 0, 0, 0, 0, 0, 0, 73
2019-01-01T00:00Z, 300, 0, 0, 0, 0, 0, 0, 0, 0, 0, 0, 0, 0, 0, 0, 0, 0, 0, 0, 0, 300
2019-02-01T00:00Z, 445, 0, 0, 0, 0, 0, 0, 0, 0, 0, 0, 0, 0, 0, 0, 0, 0, 0, 0, 0, 445
2019-03-01T00:00Z, 477, 0, 0, 0, 0, 0, 0, 0, 0, 0, 0, 0, 0, 0, 0, 0, 0, 0, 0, 0, 477
2019-04-01T00:00Z, 454, 0, 0, 0, 0, 0, 0, 0, 0, 0, 0, 0, 0, 0, 0, 0, 0, 0, 0, 9, 463
2019-05-01T00:00Z, 335, 0, 0, 0, 0, 0, 0, 0, 0, 0, 0, 0, 0, 0, 0, 0, 0, 0, 0, 109, 444
2019-06-01T00:00Z, 303, 16, 0, 0, 0, 0, 0, 0, 0, 0, 0, 0, 0, 0, 0, 0, 0, 0, 0, 72, 391
2019-07-01T00:00Z, 334, 0, 0, 0, 0, 0, 0, 0, 0, 0, 0, 0, 0, 0, 0, 0, 0, 0, 0, 119, 453
2019-08-01T00:00Z, 371, 48, 0, 0, 0, 0, 0, 0, 0, 0, 0, 0, 0, 0, 0, 0, 0, 0, 0, 100, 519
2019-09-01T00:00Z, 306, 42, 0, 0, 0, 0, 0, 0, 0, 0, 0, 0, 0, 0, 0, 0, 0, 0, 0, 109, 457
2019-10-01T00:00Z, 320, 9, 2, 3, 1, 0, 0, 0, 0, 0, 0, 0, 0, 0, 0, 0, 0, 0, 0, 75, 410
2019-11-01T00:00Z, 359, 28, 0, 1, 1, 0, 0, 0, 0, 0, 0, 0, 0, 0, 0, 0, 0, 0, 0, 81, 470
2019-12-01T00:00Z, 324, 8, 0, 11, 0, 0, 0, 0, 0, 0, 0, 0, 0, 0, 0, 0, 0, 0, 0, 151, 494
2020-01-01T00:00Z, 485, 63, 0, 24, 17, 17, 12, 0, 0, 0, 0, 0, 0, 0, 0, 0, 0, 0, 0, 116, 734
2020-02-01T00:00Z, 405, 17, 0, 2, 112, 3, 0, 0, 0, 0, 0, 0, 0, 0, 0, 0, 0, 0, 0, 180, 719
2020-03-01T00:00Z, 340, 5, 0, 0, 64, 0, 15, 6, 10, 5, 0, 0, 0, 0, 0, 0, 0, 0, 0, 191, 636
2020-04-01T00:00Z, 450, 19, 0, 4, 28, 29, 148, 0, 29, 55, 0, 0, 0, 0, 0, 0, 0, 0, 0, 243, 1005
2020-05-01T00:00Z, 469, 81, 0, 15, 0, 9, 170, 27, 27, 127, 0, 0, 0, 0, 0, 0, 0, 0, 0, 259, 1184
2020-06-01T00:00Z, 384, 45, 4, 3, 0, 0, 27, 0, 0, 17, 30, 3, 0, 0, 0, 0, 0, 0, 0, 186, 699
2020-07-01T00:00Z, 395, 8, 66, 2, 0, 2, 28, 32, 2, 66, 68, 28, 0, 0, 0, 0, 0, 0, 0, 146, 843
2020-08-01T00:00Z, 305, 17, 50, 0, 2, 105, 53, 128, 16, 114, 123, 29, 0, 0, 0, 0, 0, 0, 0, 193, 1135
2020-09-01T00:00Z, 230, 2, 34, 0, 2, 0, 15, 37, 27, 72, 28, 0, 0, 0, 0, 0, 0, 0, 0, 163, 610
2020-10-01T00:00Z, 185, 0, 29, 0, 0, 0, 91, 0, 1, 68, 21, 0, 0, 0, 0, 0, 0, 0, 0, 145, 540
2020-11-01T00:00Z, 157, 9, 34, 0, 2, 1, 72, 11, 0, 61, 34, 0, 0, 0, 0, 0, 0, 0, 0, 138, 519
2020-12-01T00:00Z, 387, 2, 34, 19, 23, 4, 110, 29, 45, 67, 4, 0, 12, 0, 0, 0, 0, 0, 0, 192, 928
2021-01-01T00:00Z, 401, 0, 61, 19, 2, 9, 88, 45, 21, 60, 53, 0, 0, 1, 0, 0, 0, 0, 0, 241, 1001
2021-02-01T00:00Z, 390, 19, 46, 10, 12, 37, 68, 59, 29, 60, 2, 22, 2, 1, 0, 0, 0, 0, 0, 121, 878
2021-03-01T00:00Z, 268, 0, 19, 4, 36, 11, 76, 50, 37, 51, 0, 25, 52, 5, 17, 0, 0, 0, 0, 263, 914
2021-04-01T00:00Z, 250, 0, 4, 2, 18, 90, 106, 0, 38, 74, 0, 32, 74, 24, 84, 223, 0, 0, 0, 314, 1333
2021-05-01T00:00Z, 318, 9, 7, 45, 45, 130, 130, 6, 44, 139, 0, 0, 43, 9, 38, 249, 25, 13, 0, 474, 1724
2021-06-01T00:00Z, 240, 0, 31, 12, 27, 39, 110, 0, 40, 85, 0, 0, 136, 54, 14, 216, 38, 3, 18, 546, 1609
2021-07-01T00:00Z, 344, 11, 62, 29, 27, 73, 192, 0, 13, 93, 2, 0, 144, 9, 121, 190, 54, 0, 93, 635, 2092
2021-08-01T00:00Z, 317, 7, 1, 22, 25, 79, 170, 0, 23, 60, 25, 4, 34, 8, 122, 38, 50, 0, 48, 530, 1563
2021-09-01T00:00Z, 482, 0, 5, 25, 52, 112, 156, 46, 9, 65, 30, 30, 94, 6, 119, 0, 1, 15, 116, 406, 1769
2021-10-01T00:00Z, 231, 0, 1, 2, 20, 23, 148, 79, 0, 22, 22, 2, 144, 30, 71, 0, 47, 56, 89, 276, 1263
2021-11-01T00:00Z, 274, 0, 1, 32, 8, 23, 108, 86, 11, 18, 2, 21, 18, 34, 84, 0, 19, 41, 90, 392, 1262
2021-12-01T00:00Z, 122, 0, 0, 3, 17, 55, 72, 20, 8, 48, 0, 0, 63, 93, 90, 0, 53, 11, 56, 440, 1151
2022-01-01T00:00Z, 158, 0, 25, 26, 34, 48, 80, 8, 11, 40, 18, 13, 144, 62, 231, 0, 36, 4, 55, 749, 1742
2022-02-01T00:00Z, 228, 0, 7, 8, 20, 14, 63, 0, 38, 65, 0, 51, 100, 27, 52, 2, 11, 7, 108, 519, 1320
2022-03-01T00:00Z, 338, 0, 4, 2, 31, 42, 128, 1, 17, 84, 2, 18, 39, 43, 63, 0, 16, 45, 114, 618, 1605
2022-04-01T00:00Z, 119, 0, 4, 3, 14, 11, 43, 0, 1, 35, 3, 0, 44, 33, 15, 0, 9, 35, 115, 538, 1022
2022-05-01T00:00Z, 1, 0, 0, 15, 39, 0, 86, 0, 1, 101, 0, 0, 0, 34, 0, 0, 22, 46, 38, 318, 701
2022-06-01T00:00Z, 17, 0, 0, 21, 25, 2, 112, 0, 0, 9, 0, 0, 23, 1, 0, 0, 1, 73, 2, 402, 688
2022-07-01T00:00Z, 104, 0, 0, 14, 60, 2, 64, 0, 3, 16, 0, 11, 32, 0, 72, 0, 11, 85, 25, 338, 837
2022-08-01T00:00Z, 156, 0, 5, 0, 16, 12, 74, 0, 0, 3, 0, 67, 4, 20, 33, 0, 1, 18, 37, 318, 764
2022-09-01T00:00Z, 250, 0, 0, 7, 55, 2, 52, 37, 1, 3, 1, 31, 5, 49, 54, 0, 1, 29, 43, 263, 883
2022-10-01T00:00Z, 87, 0, 0, 40, 8, 0, 27, 3, 2, 0, 6, 11, 3, 0, 11, 2, 2, 7, 28, 169, 406
