Date,  Stephen Adams , Konstantin Shcheglov , Brian Wilkerson , Devon Carew , Johnni Winther , Ryan Macnak , Danny Tuppeny , Jens Johansen , Ahmed Ashour , Nate Biggs , Other , Total 
2022-05-01T00:00Z, 17, 66, 16, 36, 12, 28, 38, 7, 17, 12, 187, 436
2022-06-01T00:00Z, 28, 91, 13, 26, 23, 26, 34, 22, 19, 27, 211, 520
2022-07-01T00:00Z, 6, 72, 8, 21, 10, 28, 31, 7, 14, 20, 206, 423
