Date,  Google , Adam Singer , Kenneth Endfinger , Cristian Almstrand , Alexandre Ardhuin , BOT , Roel Spilker , ARM , Gabriel Terwesten , Total 
2022-05-01T00:00Z, 291890, 0, 0, 0, 70, 6, 0, 0, 0, 291966
2022-06-01T00:00Z, 293987, 0, 0, 0, 41, 24, 0, 0, 0, 294052
2022-07-01T00:00Z, 454559, 0, 0, 0, 0, 30, 0, 0, 0, 454589
