Date,  Google , Alexandre Ardhuin , Danny Tuppeny , Ahmed Ashour , Brian Quinlan , Helin Shiah , Jesse Seales , kanghuay , Zhisong Liu , 方哲源 , Other , Total 
2022-05-01T00:00Z, 216907, 70, 62992, 11488, 0, 340, 54, 0, 0, 0, 115, 291966
2022-06-01T00:00Z, 222693, 41, 35856, 35044, 58, 198, 0, 70, 53, 0, 39, 294052
2022-07-01T00:00Z, 444210, 0, 5712, 4058, 64, 42, 0, 0, 0, 176, 327, 454589
