Date,  Google , Alexandre Ardhuin , Danny Tuppeny , BOT , Parker Lougheed , Ahmed Ashour , Brian Quinlan , Helin Shiah , なつき , Arseny Uskov , Other , Total 
2022-05-01T00:00Z, 368, 1, 38, 3, 1, 17, 0, 2, 0, 1, 5, 436
2022-06-01T00:00Z, 441, 2, 34, 12, 0, 19, 2, 5, 1, 0, 4, 520
2022-07-01T00:00Z, 355, 0, 31, 15, 0, 14, 1, 1, 0, 0, 6, 423
