Date,  Total 
2014-10-01T00:00Z, 7
2014-11-01T00:00Z, 33
2014-12-01T00:00Z, 2
2015-01-01T00:00Z, 6
2015-02-01T00:00Z, 12
2015-03-01T00:00Z, -8
2015-04-01T00:00Z, 3
2015-05-01T00:00Z, 49
2015-06-01T00:00Z, -88
2015-07-01T00:00Z, 261
2015-08-01T00:00Z, 159
2015-09-01T00:00Z, 105
2015-10-01T00:00Z, -5
2015-11-01T00:00Z, -14
2015-12-01T00:00Z, 39
2016-01-01T00:00Z, 58
2016-02-01T00:00Z, 110
2016-03-01T00:00Z, 62
2016-04-01T00:00Z, 112
2016-05-01T00:00Z, 79
2016-06-01T00:00Z, 40
2016-07-01T00:00Z, 58
2016-08-01T00:00Z, 22
2016-09-01T00:00Z, 53
2016-10-01T00:00Z, 18
2016-11-01T00:00Z, 5
2016-12-01T00:00Z, 37
2017-01-01T00:00Z, 108
2017-02-01T00:00Z, 69
2017-03-01T00:00Z, 174
2017-04-01T00:00Z, 96
2017-05-01T00:00Z, 267
2017-06-01T00:00Z, 62
2017-07-01T00:00Z, 28
2017-08-01T00:00Z, 147
2017-09-01T00:00Z, 74
2017-10-01T00:00Z, 43
2017-11-01T00:00Z, 15
2017-12-01T00:00Z, 78
2018-01-01T00:00Z, 64
2018-02-01T00:00Z, -9
2018-03-01T00:00Z, 30
2018-04-01T00:00Z, 31
2018-05-01T00:00Z, 54
2018-06-01T00:00Z, 51
2018-07-01T00:00Z, 46
2018-08-01T00:00Z, 114
2018-09-01T00:00Z, 58
2018-10-01T00:00Z, 83
2018-11-01T00:00Z, 20
2018-12-01T00:00Z, 87
2019-01-01T00:00Z, 45
2019-02-01T00:00Z, 341
2019-03-01T00:00Z, 48
2019-04-01T00:00Z, 31
2019-05-01T00:00Z, 142
2019-06-01T00:00Z, -30
2019-07-01T00:00Z, 283
2019-08-01T00:00Z, 51
2019-09-01T00:00Z, 129
2019-10-01T00:00Z, 90
2019-11-01T00:00Z, 78
2019-12-01T00:00Z, 104
2020-01-01T00:00Z, 106
2020-02-01T00:00Z, 42
2020-03-01T00:00Z, 179
2020-04-01T00:00Z, 200
2020-05-01T00:00Z, 45
2020-06-01T00:00Z, -26
2020-07-01T00:00Z, 57
2020-08-01T00:00Z, 29
2020-09-01T00:00Z, 88
2020-10-01T00:00Z, -45
2020-11-01T00:00Z, 177
2020-12-01T00:00Z, 36
2021-01-01T00:00Z, -2
2021-02-01T00:00Z, -115
2021-03-01T00:00Z, 59
2021-04-01T00:00Z, 54
2021-05-01T00:00Z, 174
2021-06-01T00:00Z, 45
2021-07-01T00:00Z, 68
2021-08-01T00:00Z, 408
2021-09-01T00:00Z, 62
2021-10-01T00:00Z, -4
2021-11-01T00:00Z, 9
2021-12-01T00:00Z, 62
2022-01-01T00:00Z, 123
2022-02-01T00:00Z, 65
2022-03-01T00:00Z, 68
2022-04-01T00:00Z, 35
2022-05-01T00:00Z, 91
2022-06-01T00:00Z, 68
2022-07-01T00:00Z, 37
2022-08-01T00:00Z, 191
2022-09-01T00:00Z, 144
