Date,  Google , Adam Singer , Kenneth Endfinger , Cristian Almstrand , Alexandre Ardhuin , BOT , Roel Spilker , ARM , Gabriel Terwesten , Total 
2021-09-01T00:00Z, 571, 0, 0, 0, 0, 0, 0, 0, 0, 571
2021-10-01T00:00Z, 505, 0, 0, 0, 0, 0, 0, 0, 0, 505
2021-11-01T00:00Z, 329, 0, 0, 0, 0, 0, 0, 0, 1, 330
