Date,  Andreas Kling , Tom , Andrew Kaster , Liav A , Brian Gianforcaro , Linus Groh , Ben Wiederhake , Itamar , Brendan Coles , Ali Mohammad Pur , Luke , Nico Weber , Idan Horowitz , Timothy Flynn , Gunnar Beutner , Tobias Christiansen , Max Wipfli , Daniel Bertalan , Sam Atkins , Other , Total 
2020-11-01T00:00Z, 157, 34, 0, 2, 1, 72, 11, 0, 37, 61, 25, 34, 0, 0, 0, 0, 0, 0, 0, 85, 519
2020-12-01T00:00Z, 387, 34, 19, 23, 4, 110, 29, 45, 29, 67, 16, 4, 12, 0, 0, 0, 0, 0, 0, 149, 928
2021-01-01T00:00Z, 401, 61, 19, 2, 9, 88, 45, 21, 30, 60, 14, 53, 0, 0, 0, 0, 0, 0, 0, 198, 1001
2021-02-01T00:00Z, 390, 46, 10, 12, 37, 68, 59, 29, 8, 60, 4, 2, 2, 0, 0, 0, 0, 0, 0, 151, 878
2021-03-01T00:00Z, 268, 19, 4, 36, 11, 76, 50, 37, 30, 51, 23, 0, 52, 17, 0, 0, 0, 0, 0, 240, 914
2021-04-01T00:00Z, 250, 4, 2, 18, 90, 106, 0, 38, 24, 74, 19, 0, 74, 84, 223, 14, 0, 0, 0, 313, 1333
2021-05-01T00:00Z, 318, 7, 45, 45, 130, 130, 6, 44, 20, 139, 29, 0, 43, 38, 249, 31, 28, 25, 0, 397, 1724
2021-06-01T00:00Z, 240, 31, 12, 27, 39, 110, 0, 40, 1, 85, 33, 0, 136, 14, 216, 14, 107, 38, 18, 448, 1609
2021-07-01T00:00Z, 344, 62, 29, 27, 73, 192, 0, 13, 0, 93, 47, 2, 144, 121, 190, 24, 54, 54, 93, 530, 2092
2021-08-01T00:00Z, 317, 1, 22, 25, 79, 170, 0, 23, 0, 60, 16, 25, 34, 122, 38, 17, 0, 50, 48, 516, 1563
2021-09-01T00:00Z, 482, 5, 25, 52, 112, 156, 46, 9, 0, 65, 0, 30, 94, 119, 0, 40, 0, 1, 116, 417, 1769
2021-10-01T00:00Z, 231, 1, 2, 20, 23, 148, 79, 0, 10, 22, 0, 22, 144, 71, 0, 10, 0, 47, 89, 344, 1263
