Date,  Total Insertions, Total Deletions
2010-02-01T00:00Z, 204946, -6440
2010-03-01T00:00Z, 30983, -5891
2010-04-01T00:00Z, 88793, -13101
2010-05-01T00:00Z, 29395, -15132
2010-06-01T00:00Z, 30548, -159402
2010-07-01T00:00Z, 16716, -6416
2010-08-01T00:00Z, 23233, -16168
2010-09-01T00:00Z, 20146, -5510
2010-10-01T00:00Z, 23076, -4934
2010-11-01T00:00Z, 11109, -2013
2010-12-01T00:00Z, 13056, -3954
2011-01-01T00:00Z, 17974, -4629
2011-02-01T00:00Z, 11833, -5899
2011-03-01T00:00Z, 10345, -2401
2011-04-01T00:00Z, 16090, -8760
2011-05-01T00:00Z, 10593, -2414
2011-06-01T00:00Z, 40645, -7029
2011-07-01T00:00Z, 10585, -10457
2011-08-01T00:00Z, 13074, -3772
2011-09-01T00:00Z, 10611, -4486
2011-10-01T00:00Z, 2766, -1596
2011-11-01T00:00Z, 3344, -1633
2011-12-01T00:00Z, 45786, -52511
2012-01-01T00:00Z, 15042, -12654
2012-02-01T00:00Z, 4897, -1502
2012-03-01T00:00Z, 2344, -1163
2012-04-01T00:00Z, 2935, -2536
2012-05-01T00:00Z, 5132, -1059
2012-06-01T00:00Z, 29158, -4761
2012-07-01T00:00Z, 6448, -2722
2012-08-01T00:00Z, 11068, -1710
2012-09-01T00:00Z, 9719, -6225
2012-10-01T00:00Z, 1315, -498
2012-11-01T00:00Z, 14383, -12093
2012-12-01T00:00Z, 8887, -4569
2013-01-01T00:00Z, 160787, -25660
2013-02-01T00:00Z, 49259, -30460
2013-03-01T00:00Z, 13431, -14999
2013-04-01T00:00Z, 12946, -3864
2013-05-01T00:00Z, 21107, -10779
2013-06-01T00:00Z, 18525, -6348
2013-07-01T00:00Z, 36987, -32582
2013-08-01T00:00Z, 59797, -11711
2013-09-01T00:00Z, 20785, -15445
2013-10-01T00:00Z, 29965, -11864
2013-11-01T00:00Z, 69209, -15720
2013-12-01T00:00Z, 27677, -8513
2014-01-01T00:00Z, 78720, -47571
2014-02-01T00:00Z, 24140, -13531
2014-03-01T00:00Z, 52597, -18112
2014-04-01T00:00Z, 30519, -48452
2014-05-01T00:00Z, 17001, -12571
2014-06-01T00:00Z, 48512, -25255
2014-07-01T00:00Z, 188379, -22818
2014-08-01T00:00Z, 47116, -55614
2014-09-01T00:00Z, 25132, -22773
2014-10-01T00:00Z, 43942, -18469
2014-11-01T00:00Z, 52628, -30621
2014-12-01T00:00Z, 27351, -19520
2015-01-01T00:00Z, 29892, -15961
2015-02-01T00:00Z, 54361, -30936
2015-03-01T00:00Z, 30068, -25257
2015-04-01T00:00Z, 91470, -63633
2015-05-01T00:00Z, 90347, -76944
2015-06-01T00:00Z, 75509, -46736
2015-07-01T00:00Z, 88511, -47404
2015-08-01T00:00Z, 91740, -44885
2015-09-01T00:00Z, 93354, -76871
2015-10-01T00:00Z, 57987, -57439
2015-11-01T00:00Z, 57301, -59093
2015-12-01T00:00Z, 108162, -68863
2016-01-01T00:00Z, 81881, -56765
2016-02-01T00:00Z, 85605, -57268
2016-03-01T00:00Z, 84580, -63466
2016-04-01T00:00Z, 83012, -55162
2016-05-01T00:00Z, 92861, -67070
2016-06-01T00:00Z, 118785, -75102
2016-07-01T00:00Z, 92811, -65905
2016-08-01T00:00Z, 58922, -37825
2016-09-01T00:00Z, 47468, -45628
2016-10-01T00:00Z, 45662, -32480
2016-11-01T00:00Z, 115699, -70777
2016-12-01T00:00Z, 77863, -59446
2017-01-01T00:00Z, 84113, -56516
2017-02-01T00:00Z, 66018, -37058
2017-03-01T00:00Z, 47780, -17098
2017-04-01T00:00Z, 77977, -45218
2017-05-01T00:00Z, 118622, -50896
2017-06-01T00:00Z, 90441, -40985
2017-07-01T00:00Z, 57515, -39003
2017-08-01T00:00Z, 49854, -33761
2017-09-01T00:00Z, 42627, -25655
2017-10-01T00:00Z, 25332, -9723
2017-11-01T00:00Z, 61834, -31565
2017-12-01T00:00Z, 143839, -101979
2018-01-01T00:00Z, 107216, -74739
2018-02-01T00:00Z, 52766, -20856
2018-03-01T00:00Z, 47543, -27461
2018-04-01T00:00Z, 45204, -33985
2018-05-01T00:00Z, 73214, -33798
2018-06-01T00:00Z, 227446, -192657
2018-07-01T00:00Z, 81993, -27257
2018-08-01T00:00Z, 107298, -40832
2018-09-01T00:00Z, 105293, -40047
2018-10-01T00:00Z, 76748, -37227
2018-11-01T00:00Z, 103560, -35878
2018-12-01T00:00Z, 93626, -39928
2019-01-01T00:00Z, 89850, -51023
2019-02-01T00:00Z, 74980, -35234
2019-03-01T00:00Z, 66564, -44003
2019-04-01T00:00Z, 190918, -158533
2019-05-01T00:00Z, 46338, -41172
2019-06-01T00:00Z, 81848, -40282
2019-07-01T00:00Z, 82645, -39008
2019-08-01T00:00Z, 87573, -38483
2019-09-01T00:00Z, 62803, -42765
2019-10-01T00:00Z, 73123, -35613
2019-11-01T00:00Z, 72932, -32117
2019-12-01T00:00Z, 38542, -21581
2020-01-01T00:00Z, 87895, -52746
2020-02-01T00:00Z, 73487, -30458
2020-03-01T00:00Z, 134695, -55388
2020-04-01T00:00Z, 95237, -32134
2020-05-01T00:00Z, 70986, -33115
2020-06-01T00:00Z, 90014, -48186
2020-07-01T00:00Z, 112171, -59463
2020-08-01T00:00Z, 62540, -35418
2020-09-01T00:00Z, 64176, -33254
2020-10-01T00:00Z, 69501, -42723
2020-11-01T00:00Z, 59748, -26662
2020-12-01T00:00Z, 69887, -19451
2021-01-01T00:00Z, 64276, -29552
2021-02-01T00:00Z, 138427, -179092
2021-03-01T00:00Z, 70746, -31482
2021-04-01T00:00Z, 75661, -31567
2021-05-01T00:00Z, 36549, -16210
2021-06-01T00:00Z, 46112, -20009
