Date,  Google , Patrice Chalin , Alexandre Ardhuin , Vyacheslav Egorov , Danny Tuppeny , Sergey G. Grekhov , Michael R Fairhurst , Ian McKellar , Alexey Knyazev , Loren Van Spronsen , Other , Total 
2017-10-01T00:00Z, 909, 0, 0, 1, 0, 0, 0, 0, 1, 0, 0, 911
2017-11-01T00:00Z, 793, 0, 0, 0, 0, 0, 0, 0, 0, 0, 1, 794
2017-12-01T00:00Z, 681, 0, 0, 0, 0, 0, 0, 0, 0, 0, 1, 682
2018-01-01T00:00Z, 614, 0, 1, 0, 0, 0, 0, 0, 0, 0, 0, 615
2018-02-01T00:00Z, 677, 0, 1, 0, 33, 0, 1, 1, 0, 0, 2, 715
2018-03-01T00:00Z, 601, 0, 2, 0, 4, 1, 0, 1, 2, 0, 2, 613
2018-04-01T00:00Z, 473, 0, 0, 0, 2, 0, 0, 1, 0, 0, 0, 476
2018-05-01T00:00Z, 790, 1, 0, 0, 10, 0, 0, 1, 0, 0, 1, 803
2018-06-01T00:00Z, 758, 1, 1, 0, 2, 0, 0, 0, 0, 5, 1, 768
2018-07-01T00:00Z, 618, 1, 0, 0, 12, 1, 0, 0, 0, 0, 1, 633
2018-08-01T00:00Z, 621, 1, 0, 0, 1, 2, 0, 0, 0, 0, 0, 625
