Date,  Elastic , Martijn van Groningen , Luca Cavanna , Nicholas Knize , David Roberts , Nick Knize , olcbean , Sohaib Iftikhar , Andrey Ershov , Ed Savage , Other , Total 
2017-12-01T00:00Z, 237464, 1909, 2064, 989, 1012, 0, 339, 0, 0, 0, 2041, 245818
2018-01-01T00:00Z, 166556, 7108, 901, 237, 3371, 0, 1732, 0, 0, 0, 2050, 181955
2018-02-01T00:00Z, 63837, 945, 5819, 7, 51, 0, 1068, 0, 0, 0, 1895, 73622
2018-03-01T00:00Z, 67787, 1188, 2075, 855, 317, 0, 1045, 0, 0, 0, 1737, 75004
2018-04-01T00:00Z, 74364, 2192, 161, 0, 97, 0, 851, 0, 0, 0, 1524, 79189
2018-05-01T00:00Z, 95572, 4601, 2295, 0, 1025, 0, 111, 1418, 0, 0, 1990, 107012
2018-06-01T00:00Z, 402642, 3643, 4743, 0, 0, 0, 1137, 3810, 0, 0, 4128, 420103
2018-07-01T00:00Z, 96506, 5333, 956, 0, 1858, 0, 103, 2628, 133, 0, 1733, 109250
2018-08-01T00:00Z, 128034, 208, 2318, 54, 12749, 0, 0, 1710, 412, 848, 1797, 148130
2018-09-01T00:00Z, 125046, 9160, 141, 0, 7817, 0, 0, 1389, 0, 709, 1078, 145340
2018-10-01T00:00Z, 100370, 7587, 1105, 0, 415, 0, 0, 0, 625, 56, 3817, 113975
2018-11-01T00:00Z, 114165, 5818, 1411, 0, 1884, 1750, 0, 0, 4168, 3114, 7128, 139438
2018-12-01T00:00Z, 100278, 6854, 2996, 3882, 5277, 10691, 0, 0, 1743, 0, 1833, 133554
2019-01-01T00:00Z, 122489, 5495, 4895, 2, 1700, 2391, 2, 0, 1374, 0, 2525, 140873
2019-02-01T00:00Z, 95856, 5133, 3029, 0, 391, 30, 0, 0, 1591, 0, 4184, 110214
2019-03-01T00:00Z, 104341, 409, 1961, 0, 741, 0, 0, 0, 542, 168, 2405, 110567
2019-04-01T00:00Z, 340544, 7258, 92, 0, 80, 724, 0, 0, 10, 17, 726, 349451
