Date,  Bob Nystrom , Konstantin Shcheglov , Brian Wilkerson , Jaime Wren , Johnni Winther , Ryan Macnak , Paul Berry , Jens Johansen , Mike Fairhurst , Alexander Markov , Other , Total 
2020-01-01T00:00Z, 6, 139, 65, 39, 43, 31, 77, 22, 44, 18, 414, 898
2020-02-01T00:00Z, 35, 87, 40, 16, 39, 40, 27, 23, 18, 32, 427, 784
2020-03-01T00:00Z, 20, 86, 62, 27, 40, 41, 51, 36, 31, 25, 445, 864
2020-04-01T00:00Z, 29, 99, 39, 28, 33, 29, 60, 22, 23, 31, 395, 788
