Date,  Google , Danny Tuppeny , Sergey G. Grekhov , Parker Lougheed , Simon Binder , Brian Quinlan , Jukka-Pekka Siitonen , Ben Butterworth , hacker1024 , Alex Lindroos , Other , Total 
2021-12-01T00:00Z, 294, 11, 3, 0, 0, 0, 17, 0, 0, 0, 2, 327
2022-01-01T00:00Z, 378, 18, 0, 1, 1, 1, 4, 0, 0, 11, 4, 418
