Date,  Konstantin Shcheglov , Vyacheslav "Slava" Egorov , Johnni Winther , Ryan Macnak , Martin Kustermann , Sam Rawlins , Ben Konyi , Aske Simon Christensen , Daco Harkes , Chloe Stefantsova , Other , Total 
2021-12-01T00:00Z, 48075, 2158, 183827, 13946, 1919, 11381, 1879, 53, 6317, 13758, 22737, 306050
2022-01-01T00:00Z, 26508, 534, 38599, 45953, 47, 1884, 5703, 7307, 4855, 10800, 44508, 186698
