Date,  Ian Hickson , Michael Goderbauer , Jonah Williams , engine-flutter-autoroll , Kate Lovett , Christopher Fujino , Darren Austin , Jenn Magder , Flutter GitHub Bot , Taha Tesser , Other , Total 
2021-04-01T00:00Z, 16, 13, 51, 121, 8, 8, 7, 82, 0, 0, 210, 516
2021-05-01T00:00Z, 14, 14, 45, 130, 4, 14, 3, 37, 0, 5, 198, 464
2021-06-01T00:00Z, 5, 10, 32, 182, 11, 2, 10, 38, 0, 2, 186, 478
2021-07-01T00:00Z, 10, 4, 10, 201, 7, 11, 14, 18, 8, 4, 170, 457
2021-08-01T00:00Z, 4, 3, 6, 151, 9, 6, 17, 20, 4, 3, 193, 416
2021-09-01T00:00Z, 3, 0, 0, 140, 12, 8, 3, 16, 2, 0, 140, 324
2021-10-01T00:00Z, 23, 4, 0, 142, 15, 15, 2, 20, 2, 6, 146, 375
2021-11-01T00:00Z, 1, 3, 0, 124, 4, 7, 5, 24, 20, 8, 123, 319
2021-12-01T00:00Z, 7, 6, 1, 158, 1, 6, 2, 8, 5, 4, 121, 319
2022-01-01T00:00Z, 2, 7, 5, 128, 6, 7, 4, 14, 19, 10, 135, 337
2022-02-01T00:00Z, 2, 6, 7, 128, 10, 9, 7, 17, 14, 25, 143, 368
2022-03-01T00:00Z, 1, 16, 9, 155, 19, 12, 9, 11, 8, 18, 173, 431
2022-04-01T00:00Z, 1, 10, 16, 222, 16, 10, 2, 17, 20, 20, 157, 491
2022-05-01T00:00Z, 0, 8, 12, 297, 6, 9, 7, 16, 8, 25, 191, 579
