Date,  Zachary Anderson , Ian Hickson , Michael Goderbauer , Greg Spencer , Jonah Williams , Kate Lovett , Tong Mu , Jenn Magder , Pierre-Louis , Taha Tesser , Other , Total 
2021-04-01T00:00Z, 0, 3400, 1627, 2644, 13085, 2404, 3841, 17758, 2, 0, 53712, 98473
2021-05-01T00:00Z, 498, 8581, 2456, 846, 9425, 1060, 39186, 3432, 0, 91, 34924, 100499
2021-06-01T00:00Z, 76, 175, 904, 1805, 7182, 1691, 663, 7641, 0, 4, 26527, 46668
2021-07-01T00:00Z, 4715, 11958, 1155, 1653, 1602, 2264, 22665, 855, 5576, 229, 35674, 88346
2021-08-01T00:00Z, 806, 64, 90, 42718, 493, 2133, 183, 2330, 11275, 171, 24046, 84309
2021-09-01T00:00Z, 342, 421, 0, 3850, 0, 1808, 0, 1199, 148, 0, 28891, 36659
2021-10-01T00:00Z, 35081, 15346, 411, 26601, 0, 2714, 256, 5099, 2256, 10666, 28127, 126557
2021-11-01T00:00Z, 20359, 97, 536, 20050, 0, 232, 80, 3459, 4425, 623, 27502, 77363
2021-12-01T00:00Z, 941, 1683, 5033, 200, 128, 230, 671, 1039, 6526, 423, 21945, 38819
2022-01-01T00:00Z, 1554, 914, 2201, 5303, 268, 1611, 322, 2716, 3235, 834, 23042, 42000
2022-02-01T00:00Z, 630, 3487, 1052, 63, 678, 1081, 79, 2129, 584, 2433, 24569, 36785
2022-03-01T00:00Z, 1644, 2, 10998, 20070, 1013, 4049, 0, 359, 1714, 4439, 30967, 75255
2022-04-01T00:00Z, 813, 112, 8893, 3580, 10616, 9500, 66, 1424, 488, 6692, 33974, 76158
2022-05-01T00:00Z, 3627, 0, 5963, 7952, 2160, 601, 845, 1547, 11929, 4259, 36039, 74922
