Date,  Google , Alexandre Ardhuin , Dan Field , BOT , Lau Ching Jun , LongCatIsLooong , godofredoc , Hannes Winkler , Ricardo Canastro , Taha Tesser , Other , Total 
2021-04-01T00:00Z, 64783, 13647, 914, 294, 21, 677, 16, 2486, 5913, 0, 9722, 98473
2021-05-01T00:00Z, 89325, 2419, 504, 372, 1626, 221, 118, 0, 0, 91, 5823, 100499
2021-06-01T00:00Z, 31606, 2197, 2414, 458, 1642, 543, 0, 0, 0, 4, 7804, 46668
2021-07-01T00:00Z, 73554, 205, 315, 520, 32, 0, 282, 3439, 0, 229, 9770, 88346
2021-08-01T00:00Z, 74420, 0, 550, 392, 517, 3135, 2, 0, 0, 171, 5122, 84309
2021-09-01T00:00Z, 23306, 0, 550, 406, 0, 2187, 1, 0, 0, 0, 10209, 36659
2021-10-01T00:00Z, 105901, 0, 114, 310, 0, 141, 430, 0, 0, 10666, 8995, 126557
2021-11-01T00:00Z, 63639, 0, 0, 376, 0, 6828, 51, 0, 0, 623, 5846, 77363
2021-12-01T00:00Z, 27638, 0, 1530, 445, 2100, 0, 207, 95, 0, 423, 6381, 38819
2022-01-01T00:00Z, 30155, 0, 100, 403, 2555, 1399, 67, 0, 0, 834, 6487, 42000
2022-02-01T00:00Z, 24930, 0, 0, 415, 1374, 356, 265, 0, 0, 2433, 7012, 36785
2022-03-01T00:00Z, 56310, 2, 3, 511, 454, 514, 105, 0, 0, 4439, 12917, 75255
2022-04-01T00:00Z, 50298, 2375, 27, 638, 186, 208, 8892, 0, 0, 6692, 6842, 76158
2022-05-01T00:00Z, 58669, 251, 1121, 809, 182, 51, 15, 0, 0, 4259, 9565, 74922
