Date,  Florian Loitsch , Nicolas Geoffray , Srdjan Mitrovic , Stephen Adams , Natalie Weizenbaum , Peter von der Ahé , Konstantin Shcheglov , Anders Johnsen , Lasse Nielsen , Johnni Winther , Other , Total 
2011-10-01T00:00Z, 32, 52, 31, 16, 7, 4, 4, 0, 0, 0, 391, 537
2011-11-01T00:00Z, 10, 15, 59, 14, 4, 27, 15, 0, 0, 0, 360, 504
2011-12-01T00:00Z, 5, 13, 28, 43, 14, 19, 9, 0, 0, 0, 321, 452
2012-01-01T00:00Z, 2, 10, 5, 38, 28, 24, 20, 6, 7, 0, 350, 490
2012-02-01T00:00Z, 24, 31, 43, 26, 12, 76, 20, 4, 4, 0, 359, 599
2012-03-01T00:00Z, 40, 47, 48, 18, 14, 82, 18, 5, 10, 0, 450, 732
2012-04-01T00:00Z, 63, 38, 40, 41, 6, 21, 10, 22, 21, 0, 461, 723
2012-05-01T00:00Z, 50, 55, 42, 23, 12, 42, 17, 6, 14, 0, 424, 685
2012-06-01T00:00Z, 33, 36, 40, 22, 8, 47, 72, 3, 12, 8, 493, 774
2012-07-01T00:00Z, 25, 0, 27, 22, 26, 0, 15, 4, 12, 7, 370, 508
2012-08-01T00:00Z, 18, 28, 55, 18, 31, 68, 58, 44, 12, 25, 812, 1169
2012-09-01T00:00Z, 16, 73, 31, 2, 13, 99, 52, 7, 44, 14, 677, 1028
2012-10-01T00:00Z, 39, 19, 46, 8, 2, 79, 34, 17, 49, 55, 653, 1001
2012-11-01T00:00Z, 9, 81, 35, 22, 35, 65, 54, 17, 24, 22, 507, 871
2012-12-01T00:00Z, 7, 30, 24, 23, 36, 20, 28, 0, 6, 23, 468, 665
2013-01-01T00:00Z, 68, 65, 37, 15, 21, 21, 26, 3, 45, 37, 584, 922
2013-02-01T00:00Z, 47, 68, 24, 17, 51, 33, 4, 22, 42, 15, 472, 795
2013-03-01T00:00Z, 72, 72, 11, 32, 55, 6, 21, 31, 30, 13, 582, 925
2013-04-01T00:00Z, 65, 35, 33, 38, 39, 45, 6, 66, 35, 27, 562, 951
2013-05-01T00:00Z, 33, 101, 22, 13, 26, 44, 56, 51, 19, 28, 461, 854
2013-06-01T00:00Z, 22, 45, 29, 3, 19, 68, 60, 68, 26, 12, 494, 846
2013-07-01T00:00Z, 43, 36, 33, 13, 26, 43, 24, 47, 11, 27, 479, 782
2013-08-01T00:00Z, 39, 43, 27, 10, 26, 51, 26, 7, 40, 19, 683, 971
2013-09-01T00:00Z, 27, 103, 6, 18, 13, 39, 15, 48, 30, 22, 521, 842
2013-10-01T00:00Z, 45, 40, 25, 32, 31, 10, 51, 63, 65, 36, 814, 1212
2013-11-01T00:00Z, 39, 64, 13, 17, 56, 10, 15, 45, 50, 19, 453, 781
2013-12-01T00:00Z, 9, 36, 11, 12, 28, 17, 4, 28, 37, 9, 254, 445
2014-01-01T00:00Z, 27, 0, 26, 21, 38, 26, 13, 22, 28, 23, 304, 528
2014-02-01T00:00Z, 56, 0, 7, 22, 37, 0, 7, 47, 26, 27, 405, 634
2014-03-01T00:00Z, 23, 0, 17, 26, 74, 22, 24, 60, 30, 30, 483, 789
2014-04-01T00:00Z, 14, 0, 24, 32, 52, 24, 19, 34, 25, 11, 425, 660
2014-05-01T00:00Z, 13, 5, 25, 8, 49, 30, 31, 36, 31, 28, 464, 720
2014-06-01T00:00Z, 15, 1, 25, 6, 62, 38, 50, 23, 33, 30, 437, 720
2014-07-01T00:00Z, 44, 0, 20, 11, 47, 21, 69, 14, 19, 17, 406, 668
2014-08-01T00:00Z, 8, 0, 4, 3, 25, 17, 82, 10, 27, 19, 525, 720
2014-09-01T00:00Z, 32, 0, 11, 1, 42, 29, 90, 19, 25, 23, 457, 729
2014-10-01T00:00Z, 44, 0, 3, 7, 7, 36, 61, 3, 18, 27, 312, 518
2014-11-01T00:00Z, 23, 0, 2, 11, 17, 46, 69, 1, 24, 23, 330, 546
2014-12-01T00:00Z, 21, 0, 10, 12, 32, 27, 43, 0, 3, 11, 317, 476
2015-01-01T00:00Z, 85, 0, 7, 6, 9, 35, 58, 0, 17, 16, 461, 694
2015-02-01T00:00Z, 33, 0, 4, 18, 7, 5, 66, 0, 14, 22, 534, 703
2015-03-01T00:00Z, 11, 0, 7, 13, 6, 0, 96, 0, 17, 17, 524, 691
2015-04-01T00:00Z, 13, 0, 5, 48, 10, 0, 43, 1, 31, 39, 454, 644
2015-05-01T00:00Z, 19, 0, 20, 10, 19, 0, 74, 0, 15, 32, 463, 652
