Date,  Google , Adam Singer , vsmenon , Justin Fagnani , Patrice Chalin , Kenneth Endfinger , pquitslund , Günter Zöchbauer , guillermooo , Cristian Almstrand , Other , Total 
2011-10-01T00:00Z, 537, 0, 0, 0, 0, 0, 0, 0, 0, 0, 0, 537
2011-11-01T00:00Z, 504, 0, 0, 0, 0, 0, 0, 0, 0, 0, 0, 504
2011-12-01T00:00Z, 452, 0, 0, 0, 0, 0, 0, 0, 0, 0, 0, 452
2012-01-01T00:00Z, 490, 0, 0, 0, 0, 0, 0, 0, 0, 0, 0, 490
2012-02-01T00:00Z, 599, 0, 0, 0, 0, 0, 0, 0, 0, 0, 0, 599
2012-03-01T00:00Z, 732, 0, 0, 0, 0, 0, 0, 0, 0, 0, 0, 732
2012-04-01T00:00Z, 723, 0, 0, 0, 0, 0, 0, 0, 0, 0, 0, 723
2012-05-01T00:00Z, 685, 0, 0, 0, 0, 0, 0, 0, 0, 0, 0, 685
2012-06-01T00:00Z, 774, 0, 0, 0, 0, 0, 0, 0, 0, 0, 0, 774
2012-07-01T00:00Z, 508, 0, 0, 0, 0, 0, 0, 0, 0, 0, 0, 508
2012-08-01T00:00Z, 1169, 0, 0, 0, 0, 0, 0, 0, 0, 0, 0, 1169
2012-09-01T00:00Z, 1028, 0, 0, 0, 0, 0, 0, 0, 0, 0, 0, 1028
2012-10-01T00:00Z, 1001, 0, 0, 0, 0, 0, 0, 0, 0, 0, 0, 1001
2012-11-01T00:00Z, 871, 0, 0, 0, 0, 0, 0, 0, 0, 0, 0, 871
2012-12-01T00:00Z, 665, 0, 0, 0, 0, 0, 0, 0, 0, 0, 0, 665
2013-01-01T00:00Z, 922, 0, 0, 0, 0, 0, 0, 0, 0, 0, 0, 922
2013-02-01T00:00Z, 795, 0, 0, 0, 0, 0, 0, 0, 0, 0, 0, 795
2013-03-01T00:00Z, 925, 0, 0, 0, 0, 0, 0, 0, 0, 0, 0, 925
2013-04-01T00:00Z, 951, 0, 0, 0, 0, 0, 0, 0, 0, 0, 0, 951
2013-05-01T00:00Z, 854, 0, 0, 0, 0, 0, 0, 0, 0, 0, 0, 854
2013-06-01T00:00Z, 846, 0, 0, 0, 0, 0, 0, 0, 0, 0, 0, 846
2013-07-01T00:00Z, 782, 0, 0, 0, 0, 0, 0, 0, 0, 0, 0, 782
2013-08-01T00:00Z, 965, 6, 0, 0, 0, 0, 0, 0, 0, 0, 0, 971
2013-09-01T00:00Z, 842, 0, 0, 0, 0, 0, 0, 0, 0, 0, 0, 842
2013-10-01T00:00Z, 1212, 0, 0, 0, 0, 0, 0, 0, 0, 0, 0, 1212
2013-11-01T00:00Z, 781, 0, 0, 0, 0, 0, 0, 0, 0, 0, 0, 781
2013-12-01T00:00Z, 445, 0, 0, 0, 0, 0, 0, 0, 0, 0, 0, 445
2014-01-01T00:00Z, 528, 0, 0, 0, 0, 0, 0, 0, 0, 0, 0, 528
2014-02-01T00:00Z, 634, 0, 0, 0, 0, 0, 0, 0, 0, 0, 0, 634
2014-03-01T00:00Z, 789, 0, 0, 0, 0, 0, 0, 0, 0, 0, 0, 789
2014-04-01T00:00Z, 660, 0, 0, 0, 0, 0, 0, 0, 0, 0, 0, 660
2014-05-01T00:00Z, 720, 0, 0, 0, 0, 0, 0, 0, 0, 0, 0, 720
2014-06-01T00:00Z, 720, 0, 0, 0, 0, 0, 0, 0, 0, 0, 0, 720
2014-07-01T00:00Z, 668, 0, 0, 0, 0, 0, 0, 0, 0, 0, 0, 668
2014-08-01T00:00Z, 720, 0, 0, 0, 0, 0, 0, 0, 0, 0, 0, 720
2014-09-01T00:00Z, 729, 0, 0, 0, 0, 0, 0, 0, 0, 0, 0, 729
2014-10-01T00:00Z, 518, 0, 0, 0, 0, 0, 0, 0, 0, 0, 0, 518
2014-11-01T00:00Z, 545, 0, 1, 0, 0, 0, 0, 0, 0, 0, 0, 546
2014-12-01T00:00Z, 471, 0, 0, 5, 0, 0, 0, 0, 0, 0, 0, 476
2015-01-01T00:00Z, 694, 0, 0, 0, 0, 0, 0, 0, 0, 0, 0, 694
2015-02-01T00:00Z, 701, 0, 2, 0, 0, 0, 0, 0, 0, 0, 0, 703
2015-03-01T00:00Z, 687, 0, 1, 0, 2, 1, 0, 0, 0, 0, 0, 691
2015-04-01T00:00Z, 642, 0, 1, 0, 0, 1, 0, 0, 0, 0, 0, 644
2015-05-01T00:00Z, 650, 0, 0, 0, 0, 1, 1, 0, 0, 0, 0, 652
