Date,  Total 
2011-10-01T00:00Z, 542106
2011-11-01T00:00Z, 193928
2011-12-01T00:00Z, 113289
2012-01-01T00:00Z, 136602
2012-02-01T00:00Z, 275001
2012-03-01T00:00Z, 465844
2012-04-01T00:00Z, 256999
2012-05-01T00:00Z, 349434
2012-06-01T00:00Z, 221855
2012-07-01T00:00Z, 129167
2012-08-01T00:00Z, 248257
2012-09-01T00:00Z, 367575
2012-10-01T00:00Z, 204204
2012-11-01T00:00Z, 301281
2012-12-01T00:00Z, 158839
2013-01-01T00:00Z, 311565
2013-02-01T00:00Z, 245209
2013-03-01T00:00Z, 226888
2013-04-01T00:00Z, 261779
2013-05-01T00:00Z, 181513
2013-06-01T00:00Z, 198995
2013-07-01T00:00Z, 178479
2013-08-01T00:00Z, 361256
2013-09-01T00:00Z, 149027
2013-10-01T00:00Z, 352699
2013-11-01T00:00Z, 167674
2013-12-01T00:00Z, 226798
2014-01-01T00:00Z, 392429
2014-02-01T00:00Z, 201336
2014-03-01T00:00Z, 609361
2014-04-01T00:00Z, 492157
2014-05-01T00:00Z, 688988
2014-06-01T00:00Z, 526366
2014-07-01T00:00Z, 561548
2014-08-01T00:00Z, 510519
2014-09-01T00:00Z, 555465
2014-10-01T00:00Z, 405419
2014-11-01T00:00Z, 502775
2014-12-01T00:00Z, 788845
2015-01-01T00:00Z, 483096
2015-02-01T00:00Z, 459531
2015-03-01T00:00Z, 261137
2015-04-01T00:00Z, 155281
2015-05-01T00:00Z, 422457
