Date,  Total 
2011-10-01T00:00Z, 537
2011-11-01T00:00Z, 504
2011-12-01T00:00Z, 452
2012-01-01T00:00Z, 490
2012-02-01T00:00Z, 599
2012-03-01T00:00Z, 732
2012-04-01T00:00Z, 723
2012-05-01T00:00Z, 685
2012-06-01T00:00Z, 774
2012-07-01T00:00Z, 508
2012-08-01T00:00Z, 1169
2012-09-01T00:00Z, 1028
2012-10-01T00:00Z, 1001
2012-11-01T00:00Z, 871
2012-12-01T00:00Z, 665
2013-01-01T00:00Z, 922
2013-02-01T00:00Z, 795
2013-03-01T00:00Z, 925
2013-04-01T00:00Z, 951
2013-05-01T00:00Z, 854
2013-06-01T00:00Z, 846
2013-07-01T00:00Z, 782
2013-08-01T00:00Z, 971
2013-09-01T00:00Z, 842
2013-10-01T00:00Z, 1212
2013-11-01T00:00Z, 781
2013-12-01T00:00Z, 445
2014-01-01T00:00Z, 528
2014-02-01T00:00Z, 634
2014-03-01T00:00Z, 789
2014-04-01T00:00Z, 660
2014-05-01T00:00Z, 720
2014-06-01T00:00Z, 720
2014-07-01T00:00Z, 668
2014-08-01T00:00Z, 720
2014-09-01T00:00Z, 729
2014-10-01T00:00Z, 518
2014-11-01T00:00Z, 546
2014-12-01T00:00Z, 476
2015-01-01T00:00Z, 694
2015-02-01T00:00Z, 703
2015-03-01T00:00Z, 691
2015-04-01T00:00Z, 644
2015-05-01T00:00Z, 652
