Date,  Google , Danny Tuppeny , Sergey G. Grekhov , Ian McKellar , Simon Binder , Irina Arkhipets , Ahmed Ashour , Bruno Leroux , Brian Quinlan , Jukka-Pekka Siitonen , Other , Total 
2021-09-01T00:00Z, 536, 9, 1, 0, 0, 1, 16, 2, 2, 0, 4, 571
2021-10-01T00:00Z, 465, 9, 1, 1, 2, 3, 8, 1, 11, 0, 4, 505
2021-11-01T00:00Z, 290, 13, 0, 0, 1, 0, 0, 0, 8, 14, 4, 330
