Date,  Simon Willnauer , Martijn van Groningen , Boaz Leskes , Nik Everett , Ryan Ernst , Christoph Büscher , Tanguy Leroux , Jason Tedor , David Roberts , David Kyle , Other , Total 
2016-11-01T00:00Z, 40, 24, 19, 52, 37, 33, 24, 93, 21, 11, 372, 726
2016-12-01T00:00Z, 31, 41, 28, 35, 19, 5, 8, 41, 20, 33, 348, 609
2017-01-01T00:00Z, 80, 49, 17, 64, 21, 14, 18, 30, 27, 24, 380, 724
2017-02-01T00:00Z, 22, 59, 22, 27, 43, 29, 22, 40, 15, 29, 312, 620
2017-03-01T00:00Z, 4, 58, 5, 23, 37, 14, 10, 47, 20, 13, 178, 409
2017-04-01T00:00Z, 18, 55, 18, 39, 37, 39, 28, 63, 22, 27, 353, 699
2017-05-01T00:00Z, 41, 12, 9, 43, 69, 28, 39, 77, 14, 24, 326, 682
2017-06-01T00:00Z, 29, 26, 23, 64, 21, 25, 11, 55, 25, 20, 388, 687
2017-07-01T00:00Z, 42, 22, 37, 35, 6, 21, 8, 78, 8, 9, 300, 566
2017-08-01T00:00Z, 13, 16, 4, 51, 21, 17, 8, 40, 16, 12, 265, 463
2017-09-01T00:00Z, 20, 18, 13, 37, 10, 20, 13, 35, 10, 4, 209, 389
2017-10-01T00:00Z, 15, 25, 8, 27, 3, 3, 12, 37, 12, 0, 173, 315
2017-11-01T00:00Z, 27, 22, 5, 29, 2, 20, 12, 49, 16, 8, 353, 543
