Date,  Total 
2016-11-01T00:00Z, 1411523
2016-12-01T00:00Z, 1405485
2017-01-01T00:00Z, 1433008
2017-02-01T00:00Z, 1461332
2017-03-01T00:00Z, 1492040
2017-04-01T00:00Z, 1529458
2017-05-01T00:00Z, 1591085
2017-06-01T00:00Z, 1640608
2017-07-01T00:00Z, 1659083
2017-08-01T00:00Z, 1675146
2017-09-01T00:00Z, 1692472
2017-10-01T00:00Z, 1707727
2017-11-01T00:00Z, 1737996
