Date,  Total 
2016-11-01T00:00Z, 726
2016-12-01T00:00Z, 609
2017-01-01T00:00Z, 724
2017-02-01T00:00Z, 620
2017-03-01T00:00Z, 409
2017-04-01T00:00Z, 699
2017-05-01T00:00Z, 682
2017-06-01T00:00Z, 687
2017-07-01T00:00Z, 566
2017-08-01T00:00Z, 463
2017-09-01T00:00Z, 389
2017-10-01T00:00Z, 315
2017-11-01T00:00Z, 543
