Date,  Konstantin Shcheglov , Brian Wilkerson , Vyacheslav "Slava" Egorov , Johnni Winther , Ryan Macnak , Paul Berry , Sam Rawlins , Jens Johansen , Dmitry Stefantsov , Daco Harkes , Other , Total 
2021-03-01T00:00Z, 29751, 5381, 11403, 21516, 10656, 32296, 2175, 14690, 9238, 9478, 54358, 200942
2021-04-01T00:00Z, 41294, 12454, 869, 18565, 5818, 16728, 849, 194, 3609, 11441, 85285, 197106
