Date,  Andreas Kling , VAN BOSSUYT Nicolas , Nicolas Van Bossuyt , GuillaumeGas , Robin Burchell , Christopher Dumas , faissaloo , Conrad Pankoff , Sergey Bugaev , Lawrence Manning , Rhin , Jesse , rhin123 , Drew Stratford , Jesse Buhagiar , Brandon Scott , Aaron Malpas , Larkin , supercomputer7 , Other , Total 
2018-10-01T00:00Z, 40687, 0, 0, 0, 0, 0, 0, 0, 0, 0, 0, 0, 0, 0, 0, 0, 0, 0, 0, 0, 40687
2018-11-01T00:00Z, 19039, 0, 0, 0, 0, 0, 0, 0, 0, 0, 0, 0, 0, 0, 0, 0, 0, 0, 0, 0, 19039
2018-12-01T00:00Z, 5580, 0, 0, 0, 0, 0, 0, 0, 0, 0, 0, 0, 0, 0, 0, 0, 0, 0, 0, 0, 5580
2019-01-01T00:00Z, 24236, 0, 0, 0, 0, 0, 0, 0, 0, 0, 0, 0, 0, 0, 0, 0, 0, 0, 0, 0, 24236
2019-02-01T00:00Z, 65641, 0, 0, 0, 0, 0, 0, 0, 0, 0, 0, 0, 0, 0, 0, 0, 0, 0, 0, 0, 65641
2019-03-01T00:00Z, 143219, 0, 0, 0, 0, 0, 0, 0, 0, 0, 0, 0, 0, 0, 0, 0, 0, 0, 0, 0, 143219
2019-04-01T00:00Z, 36196, 158, 296, 0, 0, 0, 0, 0, 0, 0, 0, 0, 0, 0, 0, 0, 0, 0, 0, 0, 36650
2019-05-01T00:00Z, 15779, 0, 0, 652, 10327, 13701, 295, 0, 0, 0, 0, 0, 0, 0, 0, 0, 0, 0, 0, 118, 40872
2019-06-01T00:00Z, 23570, 137, 0, 0, 951, 735, 497, 2093, 323, 206, 115, 0, 0, 0, 0, 0, 0, 0, 0, 514, 29141
2019-07-01T00:00Z, 15176, 0, 0, 0, 8668, 106, 0, 32, 0, 80, 346, 1551, 256, 90, 0, 0, 0, 0, 0, 312, 26617
2019-08-01T00:00Z, 14928, 0, 0, 0, 0, 0, 0, 36011, 4175, 0, 16, 140, 84, 0, 103, 29, 0, 0, 0, 475, 55961
2019-09-01T00:00Z, 110840, 0, 0, 0, 0, 0, 0, 1976, 3218, 0, 3, 32, 107, 337, 609, 214, 335, 6979, 0, 445, 125095
2019-10-01T00:00Z, 14495, 0, 0, 0, 0, 0, 0, 134, 510, 0, 0, 0, 0, 321, 104, 1122, 0, 0, 288, 2535, 19509
