Date,  Total 
2018-10-01T00:00Z, 40687
2018-11-01T00:00Z, 19039
2018-12-01T00:00Z, 5580
2019-01-01T00:00Z, 24236
2019-02-01T00:00Z, 65641
2019-03-01T00:00Z, 143219
2019-04-01T00:00Z, 36650
2019-05-01T00:00Z, 40872
2019-06-01T00:00Z, 29141
2019-07-01T00:00Z, 26617
2019-08-01T00:00Z, 55961
2019-09-01T00:00Z, 125095
2019-10-01T00:00Z, 19509
