User,   Commits, Insertions,  Deletions, LineVolume, Authorships,  Reviews
Artem Serov, 5,534, -314,848,5, 0
Ben Hagen, 1,23, -23,46,1, 0
Brett Morgan, 1,1, -1,2,1, 0
Danny Tuppeny, 2,61, -9,70,2, 0
Google, 1490,436558, -207210,643768,1490, 0
Maxim, 1,1, -1,2,1, 0
Parker Lougheed, 1,24, -24,48,1, 0
St?phane Este-Gracias, 2,67, -21,88,2, 0
Tom?s Arias, 1,1, -1,2,1, 0
Zabelnikov Sergey, 1,1, -1,2,1, 0
OTHER USERS, 1,2, -2,4,1, 0
