Date,  Konstantin Shcheglov , Brian Wilkerson , Johnni Winther , Ryan Macnak , Martin Kustermann , Paul Berry , Sam Rawlins , Danny Tuppeny , Ben Konyi , Daco Harkes , Other , Total 
2020-11-01T00:00Z, 33, 32, 29, 11, 26, 38, 36, 15, 22, 21, 240, 503
2020-12-01T00:00Z, 77, 12, 27, 14, 17, 22, 27, 17, 6, 8, 190, 417
2021-01-01T00:00Z, 60, 27, 24, 18, 10, 30, 23, 12, 22, 30, 194, 450
2021-02-01T00:00Z, 118, 18, 39, 20, 31, 23, 44, 14, 17, 30, 207, 561
