Date,  Boaz Leskes , David Pilato , Rashid Khan , Luca Cavanna , Spencer Alger , spenceralger , Clinton Gormley , Chris Cowan , Shelby Sturgis , Alexander Reelsen , Other , Total 
2013-05-01T00:00Z, 4, 0, 0, 0, 0, 0, 0, 0, 0, 0, 0, 4
2013-06-01T00:00Z, 0, 0, 0, 0, 0, 0, 0, 0, 0, 0, 0, 0
2013-07-01T00:00Z, 0, 0, 0, 0, 0, 0, 0, 0, 0, 0, 0, 0
2013-08-01T00:00Z, 0, 1, 0, 0, 0, 0, 0, 0, 0, 0, 0, 1
2013-09-01T00:00Z, 4, 0, 0, 0, 0, 0, 0, 0, 0, 0, 0, 4
2013-10-01T00:00Z, 10, 0, 0, 0, 0, 0, 0, 0, 0, 0, 0, 10
2013-11-01T00:00Z, 44, 0, 12, 0, 0, 0, 0, 0, 0, 0, 0, 56
2013-12-01T00:00Z, 41, 0, 11, 1, 0, 0, 0, 0, 0, 0, 0, 53
2014-01-01T00:00Z, 105, 0, 30, 1, 10, 6, 3, 0, 0, 0, 0, 155
2014-02-01T00:00Z, 43, 0, 88, 0, 93, 12, 0, 8, 0, 0, 0, 244
2014-03-01T00:00Z, 47, 1, 92, 0, 94, 12, 3, 36, 0, 0, 0, 285
