Date,  Total 
2013-05-01T00:00Z, 10
2013-06-01T00:00Z, 10
2013-07-01T00:00Z, 10
2013-08-01T00:00Z, 11
2013-09-01T00:00Z, 11
2013-10-01T00:00Z, 18
2013-11-01T00:00Z, 47
2013-12-01T00:00Z, 114
2014-01-01T00:00Z, 156
2014-02-01T00:00Z, 2831
2014-03-01T00:00Z, 2835
