Date,  Elastic , David Pilato , Luca Cavanna , Sibi , Leslie Hawthorn , Kevin Kirsche , Jordan Sissel , James Yu , Eike Herzbach , Loren Siebert , Other , Total 
2013-05-01T00:00Z, 4, 0, 0, 0, 0, 0, 0, 0, 0, 0, 0, 4
2013-06-01T00:00Z, 0, 0, 0, 0, 0, 0, 0, 0, 0, 0, 0, 0
2013-07-01T00:00Z, 0, 0, 0, 0, 0, 0, 0, 0, 0, 0, 0, 0
2013-08-01T00:00Z, 0, 1, 0, 0, 0, 0, 0, 0, 0, 0, 0, 1
2013-09-01T00:00Z, 4, 0, 0, 0, 0, 0, 0, 0, 0, 0, 0, 4
2013-10-01T00:00Z, 10, 0, 0, 0, 0, 0, 0, 0, 0, 0, 0, 10
2013-11-01T00:00Z, 56, 0, 0, 0, 0, 0, 0, 0, 0, 0, 0, 56
2013-12-01T00:00Z, 52, 0, 1, 0, 0, 0, 0, 0, 0, 0, 0, 53
2014-01-01T00:00Z, 154, 0, 1, 0, 0, 0, 0, 0, 0, 0, 0, 155
2014-02-01T00:00Z, 244, 0, 0, 0, 0, 0, 0, 0, 0, 0, 0, 244
2014-03-01T00:00Z, 284, 1, 0, 0, 0, 0, 0, 0, 0, 0, 0, 285
