Date,  Total 
2017-10-01T00:00Z, 3700057
2017-11-01T00:00Z, 3744133
2017-12-01T00:00Z, 3291918
2018-01-01T00:00Z, 3279769
2018-02-01T00:00Z, 3310824
2018-03-01T00:00Z, 3386648
2018-04-01T00:00Z, 3403874
2018-05-01T00:00Z, 3407510
2018-06-01T00:00Z, 3356565
2018-07-01T00:00Z, 3366670
2018-08-01T00:00Z, 3369816
