Date,  Google , Adam Singer , Kenneth Endfinger , Cristian Almstrand , Alexandre Ardhuin , BOT , Roel Spilker , ARM , Gabriel Terwesten , Total 
2017-10-01T00:00Z, 911, 0, 0, 0, 0, 0, 0, 0, 0, 911
2017-11-01T00:00Z, 794, 0, 0, 0, 0, 0, 0, 0, 0, 794
2017-12-01T00:00Z, 682, 0, 0, 0, 0, 0, 0, 0, 0, 682
2018-01-01T00:00Z, 614, 0, 0, 0, 1, 0, 0, 0, 0, 615
2018-02-01T00:00Z, 714, 0, 0, 0, 1, 0, 0, 0, 0, 715
2018-03-01T00:00Z, 611, 0, 0, 0, 2, 0, 0, 0, 0, 613
2018-04-01T00:00Z, 476, 0, 0, 0, 0, 0, 0, 0, 0, 476
2018-05-01T00:00Z, 803, 0, 0, 0, 0, 0, 0, 0, 0, 803
2018-06-01T00:00Z, 767, 0, 0, 0, 1, 0, 0, 0, 0, 768
2018-07-01T00:00Z, 633, 0, 0, 0, 0, 0, 0, 0, 0, 633
2018-08-01T00:00Z, 625, 0, 0, 0, 0, 0, 0, 0, 0, 625
