Date,  Total 
2021-04-01T00:00Z, 516
2021-05-01T00:00Z, 464
2021-06-01T00:00Z, 478
2021-07-01T00:00Z, 457
2021-08-01T00:00Z, 416
2021-09-01T00:00Z, 324
2021-10-01T00:00Z, 375
2021-11-01T00:00Z, 319
2021-12-01T00:00Z, 319
2022-01-01T00:00Z, 337
2022-02-01T00:00Z, 368
2022-03-01T00:00Z, 431
2022-04-01T00:00Z, 491
2022-05-01T00:00Z, 579
