Date,  Elastic , EPAM Systems , Larry Gregory , AUTOMATION , Maryia Lapata , Wylie Conlon , igoristic , MadameSheema , Uladzislau Lasitsa , Stratoula Kalafateli , Other , Total 
2019-05-01T00:00Z, 211527, 6718, 6004, 2768, 2503, 0, 625, 0, 0, 0, 9434, 239579
2019-06-01T00:00Z, 212947, 10856, 4165, 11058, 1488, 48, 1821, 0, 0, 0, 5083, 247466
2019-07-01T00:00Z, 260992, 8175, 3588, 0, 4676, 84, 285, 0, 0, 0, 9905, 287705
2019-08-01T00:00Z, 350971, 11106, 12082, 29075, 2718, 282, 754, 0, 0, 0, 11841, 418829
2019-09-01T00:00Z, 200986, 16913, 2073, 10533, 4137, 1132, 349, 0, 0, 0, 5772, 241895
2019-10-01T00:00Z, 732430, 20083, 7696, 10336, 4531, 6151, 20, 0, 0, 0, 16154, 797401
2019-11-01T00:00Z, 322217, 14060, 375, 4962, 1026, 1102, 0, 275, 0, 0, 7070, 351087
2019-12-01T00:00Z, 420684, 3486, 2521, 3749, 3930, 59, 177, 55, 0, 0, 3230, 437891
2020-01-01T00:00Z, 588073, 21560, 10309, 1433, 1688, 671, 1988, 1890, 0, 0, 23260, 650872
2020-02-01T00:00Z, 518233, 7650, 3772, 90, 3163, 1115, 2255, 3784, 579, 0, 2907, 543548
2020-03-01T00:00Z, 471533, 11976, 21907, 67, 1988, 6356, 390, 32015, 1330, 0, 24147, 571709
2020-04-01T00:00Z, 439269, 47928, 3146, 0, 5043, 3240, 14443, 12839, 4800, 0, 19368, 550076
2020-05-01T00:00Z, 390338, 6468, 1771, 0, 1282, 2781, 0, 8450, 7215, 902, 16955, 436162
2020-06-01T00:00Z, 622679, 16816, 1010, 0, 0, 888, 741, 472, 2617, 900, 14126, 660249
2020-07-01T00:00Z, 455144, 2842, 2543, 24, 0, 2040, 473, 17265, 12738, 107, 20439, 513615
2020-08-01T00:00Z, 424871, 1069, 253, 0, 0, 196, 8, 746, 100, 2428, 8102, 437773
2020-09-01T00:00Z, 1098837, 4956, 11917, 0, 0, 2654, 1782, 2227, 1111, 2370, 23385, 1149239
2020-10-01T00:00Z, 383921, 3298, 4122, 87, 0, 4387, 2265, 210, 19301, 1311, 7820, 426722
2020-11-01T00:00Z, 827834, 4939, 11859, 10, 0, 5021, 0, 7621, 110, 5403, 4187, 866984
2020-12-01T00:00Z, 900324, 5080, 2048, 137, 0, 6641, 6627, 52600, 42, 270, 18106, 991875
2021-01-01T00:00Z, 432057, 7674, 283, 111, 0, 6462, 14, 1818, 1550, 2164, 9711, 461844
2021-02-01T00:00Z, 4655876, 3988, 453, 318, 0, 2872, 1552, 323, 1047, 2471, 16096, 4684996
2021-03-01T00:00Z, 5059796, 6021, 1293, 131, 0, 1575, 1520, 4690, 987, 1436, 20528, 5097977
2021-04-01T00:00Z, 1907744, 1885, 2382, 177, 0, 418, 586, 0, 559, 879, 34591, 1949221
2021-05-01T00:00Z, 664423, 385, 3221, 10, 0, 4728, 219, 0, 1563, 1796, 25168, 701513
2021-06-01T00:00Z, 391902, 219, 0, 49, 0, 6749, 128, 0, 27, 7357, 13135, 419566
