Date,  Google , Adam Singer , Kenneth Endfinger , Cristian Almstrand , Alexandre Ardhuin , BOT , Roel Spilker , ARM , Gabriel Terwesten , Total 
2021-05-01T00:00Z, 464, 0, 0, 0, 0, 0, 0, 0, 0, 464
2021-06-01T00:00Z, 543, 0, 0, 0, 0, 0, 0, 0, 0, 543
2021-07-01T00:00Z, 457, 0, 0, 0, 0, 0, 0, 0, 0, 457
2021-08-01T00:00Z, 441, 0, 0, 0, 0, 0, 0, 0, 0, 441
