User,   Commits, Insertions,  Deletions, LineVolume, Authorships,  Reviews
Alexandre Ardhuin, 159,79255, -76049,155304,159, 0
Anthony, 36,16485, -4263,20748,36, 0
BOT, 1921,3100, -2753,5853,1921, 0
Dan Field, 361,71723, -29615,101338,361, 0
Danny Tuppeny, 52,2138, -492,2630,52, 0
Google, 6086,1087755, -558098,1645853,6087, 0
LongCatIsLooong, 123,31125, -11540,42665,123, 0
Ming Lyu (CareF), 72,6419, -3002,9421,72, 0
godofredoc, 42,1585, -1286,2871,42, 0
rami-a, 39,9966, -1888,11854,39, 0
OTHER USERS, 1408,140850, -44037,184887,1413, 0
