Date,  kimchy , Igor Motov , Karel Minarik , Clinton Gormley , Shay Banon , David Pilato , Simon Willnauer , Martijn van Groningen , Boaz Leskes , Luca Cavanna , Other , Total 
2010-02-01T00:00Z, 118, 0, 0, 0, 0, 0, 0, 0, 0, 0, 0, 118
2010-03-01T00:00Z, 136, 0, 0, 0, 0, 0, 0, 0, 0, 0, 0, 136
2010-04-01T00:00Z, 159, 0, 0, 0, 0, 0, 0, 0, 0, 0, 0, 159
2010-05-01T00:00Z, 191, 0, 0, 0, 0, 0, 0, 0, 0, 0, 0, 191
2010-06-01T00:00Z, 161, 0, 0, 0, 0, 0, 0, 0, 0, 0, 0, 161
2010-07-01T00:00Z, 151, 0, 0, 0, 0, 0, 0, 0, 0, 0, 0, 151
2010-08-01T00:00Z, 212, 0, 0, 0, 0, 0, 0, 0, 0, 0, 0, 212
2010-09-01T00:00Z, 129, 0, 0, 0, 0, 0, 0, 0, 0, 0, 2, 131
2010-10-01T00:00Z, 152, 0, 0, 0, 0, 0, 0, 0, 0, 0, 8, 160
2010-11-01T00:00Z, 131, 0, 0, 0, 0, 0, 0, 0, 0, 0, 0, 131
2010-12-01T00:00Z, 117, 0, 0, 0, 0, 0, 0, 0, 0, 0, 2, 119
2011-01-01T00:00Z, 140, 0, 0, 0, 0, 0, 0, 0, 0, 0, 5, 145
2011-02-01T00:00Z, 143, 0, 0, 0, 0, 0, 0, 0, 0, 0, 9, 152
2011-03-01T00:00Z, 117, 0, 0, 0, 0, 0, 0, 0, 0, 0, 1, 118
2011-04-01T00:00Z, 135, 2, 1, 1, 0, 0, 0, 0, 0, 0, 6, 145
2011-05-01T00:00Z, 92, 10, 0, 0, 0, 0, 0, 0, 0, 0, 12, 114
2011-06-01T00:00Z, 93, 6, 0, 0, 0, 0, 0, 0, 0, 0, 15, 114
2011-07-01T00:00Z, 101, 3, 0, 0, 40, 0, 0, 0, 0, 0, 9, 153
2011-08-01T00:00Z, 0, 0, 0, 0, 121, 2, 0, 0, 0, 0, 10, 133
2011-09-01T00:00Z, 0, 1, 1, 0, 111, 1, 0, 0, 0, 0, 16, 130
2011-10-01T00:00Z, 0, 2, 0, 0, 61, 0, 0, 0, 0, 0, 5, 68
2011-11-01T00:00Z, 0, 7, 0, 0, 82, 3, 0, 0, 0, 0, 8, 100
2011-12-01T00:00Z, 0, 0, 0, 0, 134, 0, 0, 0, 0, 0, 19, 153
2012-01-01T00:00Z, 0, 0, 0, 0, 150, 0, 0, 0, 0, 0, 11, 161
2012-02-01T00:00Z, 0, 0, 0, 0, 159, 17, 0, 0, 0, 0, 14, 190
2012-03-01T00:00Z, 0, 1, 0, 0, 64, 0, 0, 0, 0, 0, 14, 79
2012-04-01T00:00Z, 0, 1, 0, 0, 59, 0, 0, 0, 0, 0, 10, 70
2012-05-01T00:00Z, 0, 0, 0, 0, 83, 1, 0, 0, 0, 0, 2, 86
2012-06-01T00:00Z, 0, 3, 0, 0, 106, 0, 1, 2, 0, 0, 17, 129
2012-07-01T00:00Z, 0, 2, 0, 0, 59, 0, 0, 1, 0, 0, 5, 67
2012-08-01T00:00Z, 0, 0, 0, 0, 58, 0, 3, 12, 0, 0, 7, 80
2012-09-01T00:00Z, 0, 0, 1, 0, 52, 1, 0, 26, 0, 0, 4, 84
2012-10-01T00:00Z, 0, 3, 0, 0, 27, 0, 1, 2, 0, 0, 2, 35
2012-11-01T00:00Z, 0, 56, 0, 0, 60, 2, 15, 56, 0, 0, 16, 205
2012-12-01T00:00Z, 0, 4, 0, 0, 61, 2, 2, 17, 0, 0, 8, 94
2013-01-01T00:00Z, 0, 8, 0, 1, 66, 0, 22, 22, 0, 0, 13, 132
2013-02-01T00:00Z, 0, 26, 0, 0, 71, 16, 13, 20, 0, 0, 14, 160
2013-03-01T00:00Z, 0, 6, 0, 3, 50, 0, 49, 4, 0, 0, 20, 132
2013-04-01T00:00Z, 0, 9, 0, 2, 42, 4, 33, 19, 0, 0, 21, 130
2013-05-01T00:00Z, 0, 7, 85, 4, 24, 19, 30, 21, 4, 0, 31, 225
2013-06-01T00:00Z, 0, 0, 34, 30, 19, 14, 33, 16, 4, 0, 62, 212
2013-07-01T00:00Z, 0, 0, 0, 12, 76, 12, 11, 29, 17, 13, 95, 265
2013-08-01T00:00Z, 0, 1, 0, 1, 41, 62, 67, 48, 30, 11, 58, 319
2013-09-01T00:00Z, 0, 1, 24, 52, 63, 11, 63, 27, 17, 39, 56, 353
2013-10-01T00:00Z, 0, 3, 0, 22, 20, 7, 40, 15, 29, 18, 70, 224
2013-11-01T00:00Z, 0, 20, 6, 14, 37, 34, 54, 27, 16, 26, 80, 314
2013-12-01T00:00Z, 0, 4, 1, 12, 50, 27, 53, 36, 22, 14, 75, 294
2014-01-01T00:00Z, 0, 19, 1, 58, 31, 91, 67, 50, 7, 42, 168, 534
2014-02-01T00:00Z, 0, 3, 2, 16, 7, 41, 28, 16, 8, 33, 101, 255
