Date,  Total 
2010-02-01T00:00Z, 114
2010-03-01T00:00Z, 325
2010-04-01T00:00Z, 803
2010-05-01T00:00Z, 906
2010-06-01T00:00Z, 1017
2010-07-01T00:00Z, 455
2010-08-01T00:00Z, 545
2010-09-01T00:00Z, 665
2010-10-01T00:00Z, 793
2010-11-01T00:00Z, 857
2010-12-01T00:00Z, 917
2011-01-01T00:00Z, 984
2011-02-01T00:00Z, 1005
2011-03-01T00:00Z, 1048
2011-04-01T00:00Z, 1077
2011-05-01T00:00Z, 1137
2011-06-01T00:00Z, 1355
2011-07-01T00:00Z, 1383
2011-08-01T00:00Z, 1436
2011-09-01T00:00Z, 1480
2011-10-01T00:00Z, 1494
2011-11-01T00:00Z, 1495
2011-12-01T00:00Z, 1572
2012-01-01T00:00Z, 1369
2012-02-01T00:00Z, 1385
2012-03-01T00:00Z, 1387
2012-04-01T00:00Z, 1397
2012-05-01T00:00Z, 1414
2012-06-01T00:00Z, 1480
2012-07-01T00:00Z, 1512
2012-08-01T00:00Z, 1574
2012-09-01T00:00Z, 1605
2012-10-01T00:00Z, 1606
2012-11-01T00:00Z, 1615
2012-12-01T00:00Z, 1622
2013-01-01T00:00Z, 1725
2013-02-01T00:00Z, 1701
2013-03-01T00:00Z, 1727
2013-04-01T00:00Z, 1763
2013-05-01T00:00Z, 1887
2013-06-01T00:00Z, 2022
2013-07-01T00:00Z, 2131
2013-08-01T00:00Z, 2581
2013-09-01T00:00Z, 2622
2013-10-01T00:00Z, 2705
2013-11-01T00:00Z, 3079
2013-12-01T00:00Z, 3195
2014-01-01T00:00Z, 3376
2014-02-01T00:00Z, 3428
