Date,  Elastic , Lukáš Vlček , Benjamin Devèze , Benjamin Devèze , David Pilato , Martijn van Groningen , Chris Male , Honza Kral , Luca Cavanna , Andrew Raines , Other , Total 
2010-02-01T00:00Z, 211386, 0, 0, 0, 0, 0, 0, 0, 0, 0, 0, 211386
2010-03-01T00:00Z, 36874, 0, 0, 0, 0, 0, 0, 0, 0, 0, 0, 36874
2010-04-01T00:00Z, 101894, 0, 0, 0, 0, 0, 0, 0, 0, 0, 0, 101894
2010-05-01T00:00Z, 44527, 0, 0, 0, 0, 0, 0, 0, 0, 0, 0, 44527
2010-06-01T00:00Z, 189950, 0, 0, 0, 0, 0, 0, 0, 0, 0, 0, 189950
2010-07-01T00:00Z, 23132, 0, 0, 0, 0, 0, 0, 0, 0, 0, 0, 23132
2010-08-01T00:00Z, 39401, 0, 0, 0, 0, 0, 0, 0, 0, 0, 0, 39401
2010-09-01T00:00Z, 25363, 291, 0, 0, 0, 0, 0, 0, 0, 0, 2, 25656
2010-10-01T00:00Z, 27747, 0, 0, 0, 0, 0, 0, 0, 0, 0, 263, 28010
2010-11-01T00:00Z, 13122, 0, 0, 0, 0, 0, 0, 0, 0, 0, 0, 13122
2010-12-01T00:00Z, 16952, 0, 0, 0, 0, 0, 0, 0, 0, 0, 58, 17010
2011-01-01T00:00Z, 22108, 273, 0, 0, 0, 0, 0, 0, 0, 0, 222, 22603
2011-02-01T00:00Z, 17124, 1, 0, 0, 0, 0, 0, 0, 0, 0, 607, 17732
2011-03-01T00:00Z, 12716, 0, 0, 0, 0, 0, 0, 0, 0, 0, 30, 12746
2011-04-01T00:00Z, 24686, 133, 0, 0, 0, 0, 0, 0, 0, 0, 31, 24850
2011-05-01T00:00Z, 12776, 28, 0, 0, 0, 0, 0, 0, 0, 0, 203, 13007
2011-06-01T00:00Z, 39033, 7809, 0, 0, 0, 0, 0, 0, 0, 0, 832, 47674
2011-07-01T00:00Z, 20283, 146, 0, 0, 0, 0, 0, 0, 0, 0, 613, 21042
2011-08-01T00:00Z, 15015, 0, 367, 1114, 107, 0, 0, 0, 0, 0, 243, 16846
2011-09-01T00:00Z, 13351, 39, 1104, 0, 1, 0, 0, 0, 0, 0, 602, 15097
2011-10-01T00:00Z, 3936, 203, 0, 0, 0, 0, 0, 0, 0, 0, 223, 4362
2011-11-01T00:00Z, 4813, 0, 0, 0, 8, 0, 0, 0, 0, 0, 156, 4977
2011-12-01T00:00Z, 96707, 0, 0, 0, 0, 0, 0, 0, 0, 0, 1590, 98297
2012-01-01T00:00Z, 27286, 10, 34, 149, 0, 0, 0, 0, 0, 0, 217, 27696
2012-02-01T00:00Z, 5975, 0, 61, 258, 38, 0, 0, 0, 0, 0, 67, 6399
2012-03-01T00:00Z, 3108, 2, 0, 19, 0, 0, 0, 0, 0, 0, 378, 3507
2012-04-01T00:00Z, 4003, 0, 0, 174, 0, 0, 0, 0, 0, 0, 1294, 5471
2012-05-01T00:00Z, 6173, 4, 0, 0, 12, 0, 0, 0, 0, 0, 2, 6191
2012-06-01T00:00Z, 32627, 0, 0, 5, 0, 486, 302, 0, 0, 0, 499, 33919
2012-07-01T00:00Z, 9051, 0, 0, 0, 0, 48, 0, 0, 0, 0, 71, 9170
2012-08-01T00:00Z, 6254, 0, 0, 0, 0, 3208, 3230, 0, 0, 0, 86, 12778
2012-09-01T00:00Z, 11977, 0, 0, 0, 22, 3012, 928, 0, 0, 0, 5, 15944
2012-10-01T00:00Z, 1584, 0, 0, 0, 0, 222, 0, 0, 0, 0, 7, 1813
2012-11-01T00:00Z, 15626, 0, 0, 0, 27, 7388, 3402, 0, 0, 0, 33, 26476
2012-12-01T00:00Z, 9575, 0, 0, 0, 22, 3820, 0, 0, 0, 0, 39, 13456
2013-01-01T00:00Z, 180364, 0, 0, 0, 0, 6046, 0, 0, 0, 0, 37, 186447
2013-02-01T00:00Z, 53686, 0, 0, 0, 20998, 4937, 0, 0, 0, 0, 98, 79719
2013-03-01T00:00Z, 26029, 0, 0, 97, 0, 2052, 0, 0, 0, 0, 252, 28430
2013-04-01T00:00Z, 14277, 0, 0, 0, 773, 1712, 0, 0, 0, 0, 48, 16810
2013-05-01T00:00Z, 25320, 0, 0, 0, 397, 5712, 0, 0, 0, 0, 457, 31886
2013-06-01T00:00Z, 19532, 0, 0, 17, 1704, 2414, 0, 319, 0, 0, 887, 24873
2013-07-01T00:00Z, 54178, 0, 5, 3, 1460, 9206, 0, 1230, 1868, 1164, 455, 69569
2013-08-01T00:00Z, 55737, 0, 8, 68, 4119, 10277, 0, 0, 953, 0, 346, 71508
2013-09-01T00:00Z, 27735, 0, 0, 0, 999, 2469, 0, 6, 2361, 2596, 64, 36230
2013-10-01T00:00Z, 26922, 0, 0, 0, 195, 6362, 0, 89, 7436, 315, 510, 41829
2013-11-01T00:00Z, 66300, 0, 2, 5, 2172, 5292, 0, 0, 8571, 948, 1639, 84929
2013-12-01T00:00Z, 23984, 0, 0, 0, 1174, 1339, 0, 0, 7847, 400, 1446, 36190
2014-01-01T00:00Z, 100912, 0, 14, 0, 5929, 11471, 0, 0, 3553, 1818, 2594, 126291
2014-02-01T00:00Z, 23347, 0, 5, 40, 5214, 6610, 0, 0, 2132, 3, 320, 37671
