Date,  Boaz Leskes , Rashid Khan , Spencer Alger , Chris Cowan , Shelby Sturgis , Spencer , Juan Thomassie , Joe Fleming , lukasolson , Lukas Olson , Other , Total 
2014-04-01T00:00Z, 13, 238, 164, 13, 10, 0, 0, 0, 0, 0, 0, 438
2014-05-01T00:00Z, 19, 160, 210, 35, 2, 4, 0, 0, 0, 0, 2, 432
2014-06-01T00:00Z, 20, 208, 178, 17, 100, 0, 18, 0, 0, 0, 1, 542
2014-07-01T00:00Z, 2, 50, 92, 2, 46, 0, 0, 16, 0, 0, 1, 209
2014-08-01T00:00Z, 3, 100, 129, 67, 181, 10, 140, 140, 0, 0, 0, 770
2014-09-01T00:00Z, 1, 49, 116, 65, 108, 33, 38, 158, 0, 0, 1, 569
2014-10-01T00:00Z, 2, 74, 169, 11, 83, 27, 23, 158, 0, 0, 12, 559
2014-11-01T00:00Z, 64, 77, 153, 12, 54, 18, 29, 105, 30, 10, 11, 563
2014-12-01T00:00Z, 16, 162, 175, 56, 46, 29, 31, 137, 22, 10, 28, 712
2015-01-01T00:00Z, 1, 88, 143, 78, 60, 13, 34, 117, 33, 14, 10, 591
2015-02-01T00:00Z, 9, 61, 144, 48, 64, 32, 6, 45, 33, 10, 53, 505
