Date,  Google , Danny Tuppeny , Sergey G. Grekhov , Loren Van Spronsen , mnordine , Parker Lougheed , Franklin Yow , ffabss , Umer Masood , Marcin Niemira , Other , Total 
2021-03-01T00:00Z, 568, 12, 6, 0, 0, 2, 0, 0, 0, 1, 1, 590
2021-04-01T00:00Z, 522, 31, 3, 0, 0, 0, 3, 0, 0, 0, 7, 566
