1265643174|v0.4.0 Tagged
1267805413|v0.5.0 Tagged
1268141565|v0.5.1 Tagged
1270833594|v0.6.0 Tagged
1273879014|v0.7.0 Tagged
1274060514|v0.7.1 Tagged
1274986881|v0.8.0 Tagged
1280185409|v0.9.0 Tagged
1282930224|v0.10.0 Tagged
1285712124|v0.11.0 Tagged
1287443919|v0.12.0 Tagged
1288216669|v0.12.1 Tagged
1290098511|v0.13.0 Tagged
1291411953|v0.13.1 Tagged
1293488657|v0.14.0 Tagged
1293631326|v0.14.1 Tagged
1294269499|v0.14.2 Tagged
1295825381|v0.14.3 Tagged
1296518387|v0.14.4 Tagged
1298058701|v0.15.0 Tagged
1299014773|v0.15.1 Tagged
1299508067|v0.15.2 Tagged
1303602535|v0.16.0 Tagged
1305233270|v0.16.1 Tagged
1306897643|v0.16.2 Tagged
1310158121|v0.16.3 Tagged
1310675519|v0.16.4 Tagged
1311039204|v0.17.0 Tagged
1311208267|v0.17.1 Tagged
1311695611|v0.16.5 Tagged
1311768479|v0.17.2 Tagged
1312472325|v0.17.3 Tagged
1312504611|v0.17.4 Tagged
1313163870|v0.17.5 Tagged
1313245931|v0.17.6 Tagged
1316455647|v0.17.7 Tagged
1317944054|v0.17.8 Tagged
1319069863|v0.17.9 Tagged
1319662841|v0.18.0 Tagged
1319679569|v0.18.1 Tagged
1319747969|v0.18.2 Tagged
1321447644|v0.17.10 Tagged
1321455977|v0.18.3 Tagged
1321480610|v0.18.4 Tagged
1322574787|v0.18.5 Tagged
1324294884|v0.18.6 Tagged
1326200855|v0.18.7 Tagged
1328627038|v0.19.0.RC1 Tagged
1328747777|v0.19.0.RC2 Tagged
1329836021|v0.19.0.RC3 Tagged
1330687116|v0.19.0 Tagged
1332252204|v0.19.1 Tagged
1333572700|v0.19.2 Tagged
1335789100|v0.19.3 Tagged
1337637989|v0.19.4 Tagged
1340638571|v0.19.5 Tagged
1340645594|v0.19.6 Tagged
1340740627|v0.19.7 Tagged
1341266925|v0.19.8 Tagged
1345729862|v0.19.9 Tagged
1349107319|v0.19.10 Tagged
1350870727|v0.20.0.RC1 Tagged
1351042674|v0.19.11 Tagged
1354634446|v0.19.12 Tagged
1354921833|v0.20.0 Tagged
1354930548|v0.20.1 Tagged
1356618560|v0.20.2 Tagged
1359151195|v0.20.3 Tagged
1359454399|v0.20.4 Tagged
1360851988|v0.20.5 Tagged
1361874791|v0.90.0.Beta1 Tagged
1363806327|v0.90.0.RC1 Tagged
1364214735|v0.20.6 Tagged
1365400025|v0.90.0.RC2 Tagged
1367243700|v0.90.0 Tagged
1369923131|v0.90.1 Tagged
1375800239|v0.90.2 Tagged
1375802322|v0.90.3 Tagged
1379347828|v0.90.4 Tagged
1379429395|v0.90.5 Tagged
1383575737|v0.90.6 Tagged
1383751963|v1.0.0.Beta1 Tagged
1384347993|v0.90.7 Tagged
1385999130|v1.0.0.Beta2 Tagged
1387382887|v0.90.8 Tagged
1387794859|v0.90.9 Tagged
1389349107|v0.90.10 Tagged
1389805342|v1.0.0.RC1 Tagged
1391439723|v1.0.0.RC2 Tagged
1391441250|v0.90.11 Tagged
1392221893|v1.0.0 Tagged
1393342675|v0.90.12 Tagged
1393343564|v1.0.1 Tagged
1395761050|v0.90.13 Tagged
1395762053|v1.0.2 Tagged
1395763042|v1.1.0 Tagged
1397658363|v1.1.1 Tagged
1397659357|v1.0.3 Tagged
1400761554|v1.1.2 Tagged
1400762790|v1.2.0 Tagged
1401807677|v1.2.1 Tagged
1404907228|v1.2.2 Tagged
1406121255|v1.2.3 Tagged
1406123047|v1.3.0 Tagged
1406558546|v1.3.1 Tagged
1407938808|v1.2.4 Tagged
1407940070|v1.3.2 Tagged
1411997839|v1.3.3 Tagged
1412067932|v1.3.4 Tagged
1412175334|v1.4.0.Beta1 Tagged
1415197471|v1.4.0 Tagged
1415200739|v1.3.5 Tagged
1417015566|v1.3.6 Tagged
1417016858|v1.4.1 Tagged
1418720346|v1.3.7 Tagged
1418721048|v1.4.2 Tagged
1423664101|v1.4.3 Tagged
1423665858|v1.3.8 Tagged
1424349205|v1.3.9 Tagged
1424351038|v1.4.4 Tagged
1427120935|v1.5.0 Tagged
1428586805|v1.5.1 Tagged
1430121873|v1.4.5 Tagged
1430126376|v1.5.2 Tagged
1433856908|v1.6.0 Tagged
1437055527|v1.6.1 Tagged
1437056907|v1.7.0 Tagged
1438161800|v1.6.2 Tagged
1438163561|v1.7.1 Tagged
1440605497|v2.0.0-beta1 Tagged
1442224085|v1.7.2 Tagged
1442243082|v2.0.0-beta2 Tagged
1443683802|v2.0.0-rc1 Tagged
1444900362|v1.7.3 Tagged
1445468463|v2.0.0 Tagged
1447861780|v2.0.1 Tagged
1447883630|v2.1.0 Tagged
1450177013|v2.1.1 Tagged
1450180885|v1.7.4 Tagged
1450270488|v2.0.2 Tagged
1453902656|v2.1.2 Tagged
1453903054|v2.2.0 Tagged
1454406838|v1.7.5 Tagged
1457518294|v2.2.1 Tagged
1458915869|v2.3.0 Tagged
1458915874|v2.2.2 Tagged
1459522929|v2.3.1 Tagged
1459702357|v5.0.0-alpha1 Tagged
1461261633|v2.3.2 Tagged
1461656730|v5.0.0-alpha2 Tagged
1463483432|v2.3.3 Tagged
1464257258|v5.0.0-alpha3 Tagged
1467029586|v5.0.0-alpha4 Tagged
1467287648|v2.3.4 Tagged
1469609803|v2.3.5 Tagged
1470306216|v5.0.0-alpha5 Tagged
1472461443|v2.4.0 Tagged
1474379096|v5.0.0-beta1 Tagged
1474657183|v2.4.1 Tagged
1475861795|v5.0.0-rc1 Tagged
1477436939|v5.0.0 Tagged
1478882602|v5.0.1 Tagged
1479294964|v2.4.2 Tagged
1479482413|v1.7.6 Tagged
1479945893|v5.0.2 Tagged
1481019023|v5.1.1 Tagged
1481128221|v2.4.3 Tagged
1482165707|v2.4.4 Tagged
1484128706|v5.1.2 Tagged
1485871340|v5.2.0 Tagged
1486675689|v5.2.1 Tagged
1487924963|v5.2.2 Tagged
1490705356|v5.3.0 Tagged
1492525789|v2.4.5 Tagged
1492770349|v5.3.1 Tagged
1493031977|v5.3.2 Tagged
1493900227|v5.4.0 Tagged
1494433810|v6.0.0-alpha1 Tagged
1496320982|v5.4.1 Tagged
1496321524|v5.3.3 Tagged
1496765104|v6.0.0-alpha2 Tagged
1498038718|v5.4.2 Tagged
1498582725|v5.4.3 Tagged
1499436981|v5.5.0 Tagged
1499946469|v2.4.6 Tagged
1501141102|v5.5.1 Tagged
1502201966|v6.0.0-beta1 Tagged
1502990357|v5.5.2 Tagged
1504272230|v6.0.0-beta2 Tagged
1505218742|v5.6.0 Tagged
1505220624|v5.5.3 Tagged
1505742508|v5.6.1 Tagged
1506433375|v5.6.2 Tagged
1506595961|v6.0.0-rc1 Tagged
1507709781|v5.6.3 Tagged
1509452217|v6.0.0-rc2 Tagged
1510143968|v5.6.4 Tagged
1510678748|v6.0.0 Tagged
1512646482|v5.6.5 Tagged
1512646850|v6.0.1 Tagged
1513242047|v6.1.0 Tagged
1513795943|v6.1.1 Tagged
1516114155|v5.6.6 Tagged
1516114606|v6.1.2 Tagged
1517338192|v5.6.7 Tagged
1517339861|v6.1.3 Tagged
1517918134|v6.2.0 Tagged
1518093401|v6.2.1 Tagged
1519146880|v6.2.2 Tagged
1519162920|v5.6.8 Tagged
1521564101|v6.2.3 Tagged
1521564133|v6.1.4 Tagged
1523987384|v5.6.9 Tagged
1523992176|v6.2.4 Tagged
1528910050|v6.3.0 Tagged
1528925944|v5.6.10 Tagged
1530793555|v6.3.1 Tagged
1532422018|v6.3.2 Tagged
1534502526|v6.4.0 Tagged
1535045764|v5.6.11 Tagged
1537285415|v6.4.1 Tagged
1537353013|v5.6.12 Tagged
1538505250|v6.4.2 Tagged
1541515699|v5.6.13 Tagged
1541516358|v6.4.3 Tagged
1542219220|v6.5.0 Tagged
1542703204|v6.5.1 Tagged
1544183148|v6.5.2 Tagged
1544548390|v5.6.14 Tagged
1544551241|v6.5.3 Tagged
1545325030|v7.0.0-alpha2 Tagged
1545325082|v7.0.0-alpha1 Tagged
1545742363|v6.5.4 Tagged
1548776789|v6.6.0 Tagged
1550163774|v7.0.0-beta1 Tagged
1550823966|v6.6.1 Tagged
1550842350|v5.6.15 Tagged
1552395819|v6.6.2 Tagged
1553015065|v5.6.16 Tagged
1553622203|v6.7.0 Tagged
1553689256|v7.0.0-rc1 Tagged
1554228022|v7.0.0-rc2 Tagged
1554395233|v6.7.1 Tagged
1554896512|v7.0.0 Tagged
1556715556|v7.0.1 Tagged
1556803946|v6.7.2 Tagged
1558355058|v6.8.0 Tagged
1558363080|v7.1.0 Tagged
1559048099|v7.1.1 Tagged
1561041923|v6.8.1 Tagged
1561477900|v7.2.0 Tagged
1564503942|v6.8.2 Tagged
1564504172|v7.2.1 Tagged
1564584618|v7.3.0 Tagged
1566489232|v7.3.1 Tagged
1567704809|v6.8.3 Tagged
1568307731|v7.3.2 Tagged
1569940212|v7.4.0 Tagged
1571840533|v6.8.4 Tagged
1571840621|v7.4.1 Tagged
1572539607|v7.4.2 Tagged
1574269024|v6.8.5 Tagged
1575302937|v7.5.0 Tagged
1576690534|v6.8.6 Tagged
1576694783|v7.5.1 Tagged
1579634223|v7.5.2 Tagged
1581438918|v7.6.0 Tagged
1583343517|v6.8.7 Tagged
1583343991|v7.6.1 Tagged
1585672550|v6.8.8 Tagged
1585672927|v7.6.2 Tagged
1589379299|v7.7.0 Tagged
1589381703|v6.8.9 Tagged
1591192922|v6.8.10 Tagged
1591193274|v7.7.1 Tagged
1592486900|v7.8.0 Tagged
1595860955|v6.8.11 Tagged
1595861008|v7.8.1 Tagged
1597760707|v6.8.12 Tagged
1597761468|v7.9.0 Tagged
1599146241|v7.9.1 Tagged
1600957094|v7.9.2 Tagged
1603372731|v6.8.13 Tagged
1603374263|v7.9.3 Tagged
1605109091|v7.10.0 Tagged
1607525887|v7.10.1 Tagged
1610644813|v7.10.2 Tagged
1612970835|v6.8.14 Tagged
1612971173|v7.11.0 Tagged
1613579089|v7.11.1 Tagged
1615388727|v7.11.2 Tagged
1616512486|v6.8.15 Tagged
1616512829|v7.12.0 Tagged
1619542567|v7.12.1 Tagged
1621946589|v6.8.16 Tagged
1621946911|v7.13.0 Tagged
1622646685|v7.13.1 Tagged
