Date,  Peter von der Ahé , Dan Rubel , Konstantin Shcheglov , Brian Wilkerson , Vyacheslav "Slava" Egorov , Johnni Winther , Ryan Macnak , Martin Kustermann , Paul Berry , Alexander Markov , Other , Total 
2018-09-01T00:00Z, 38, 37, 81, 23, 14, 38, 28, 12, 65, 28, 243, 607
2018-10-01T00:00Z, 94, 38, 84, 51, 34, 11, 29, 32, 48, 43, 315, 779
2018-11-01T00:00Z, 26, 29, 55, 56, 21, 30, 33, 48, 67, 16, 310, 691
