Date,  Google , Danny Tuppeny , Sergey G. Grekhov , mnordine , Parker Lougheed , Simon Binder , JustWe , Dong-Heon Jung , Irina Arkhipets , Mateus Felipe C. C. Pinto , Other , Total 
2021-05-01T00:00Z, 442, 11, 1, 0, 0, 0, 2, 3, 1, 0, 4, 464
2021-06-01T00:00Z, 500, 30, 1, 0, 2, 5, 0, 1, 1, 1, 2, 543
2021-07-01T00:00Z, 439, 13, 0, 1, 1, 1, 0, 0, 1, 0, 1, 457
2021-08-01T00:00Z, 400, 24, 0, 0, 0, 0, 0, 0, 1, 2, 14, 441
